5toSemestre/lab_diseño_logico/Practica6/semaforo/simulation/qsim/semaforo.msim.vcd
$comment
	File created using the following command:
		vcd file semaforo.msim.vcd -direction
$end
$date
	Thu Feb 22 19:49:24 2024
$end
$version
	ModelSim Version 10.1d
$end
$timescale
	1ps
$end
$scope module semaforo_vlg_vec_tst $end
$var reg 1 ! clk $end
$var wire 1 " semaforoAmarillo $end
$var wire 1 # semaforoRojo $end
$var wire 1 $ semaforoVerde $end
$var wire 1 % sampler $end
$scope module i1 $end
$var wire 1 & gnd $end
$var wire 1 ' vcc $end
$var wire 1 ( unknown $end
$var tri1 1 ) devclrn $end
$var tri1 1 * devpor $end
$var tri1 1 + devoe $end
$var wire 1 , clk~combout $end
$var wire 1 - c[0]~5 $end
$var wire 1 . c[0]~5COUT1_18 $end
$var wire 1 / c[1]~7 $end
$var wire 1 0 c[1]~7COUT1_20 $end
$var wire 1 1 c[2]~1 $end
$var wire 1 2 c[2]~1COUT1_22 $end
$var wire 1 3 c[3]~11 $end
$var wire 1 4 c[4]~3 $end
$var wire 1 5 c[4]~3COUT1_24 $end
$var wire 1 6 LessThan0~0_combout $end
$var wire 1 7 LessThan0~1_combout $end
$var wire 1 8 LessThan2~0_combout $end
$var wire 1 9 LessThan2~1_combout $end
$var wire 1 : always1~0_combout $end
$var wire 1 ; always1~1_combout $end
$var wire 1 < semaforoRojo~reg0_regout $end
$var wire 1 = semaforoAmarillo~reg0_regout $end
$var wire 1 > semaforoVerde~reg0_regout $end
$var wire 1 ? c [5] $end
$var wire 1 @ c [4] $end
$var wire 1 A c [3] $end
$var wire 1 B c [2] $end
$var wire 1 C c [1] $end
$var wire 1 D c [0] $end
$upscope $end
$upscope $end
$enddefinitions $end
#0
$dumpvars
0!
0"
0#
0$
x%
0&
1'
x(
1)
1*
1+
0,
0-
0.
1/
10
01
02
13
04
05
16
07
08
09
0:
0;
0<
0=
0>
0D
0C
0B
0A
0@
0?
$end
#5000
1!
1,
0%
1>
1D
1.
1-
1$
#10000
0!
0,
1%
#15000
1!
1,
0%
1C
0D
00
0/
0.
0-
10
1/
#20000
0!
0,
1%
#25000
1!
1,
0%
1D
1.
1-
00
0/
#30000
0!
0,
1%
#35000
1!
1,
0%
1B
0C
0D
06
12
11
10
1/
0.
0-
02
01
#40000
0!
0,
1%
#45000
1!
1,
0%
1D
1.
1-
#50000
0!
0,
1%
#55000
1!
1,
0%
1C
0D
00
0/
0.
0-
12
11
10
1/
02
01
#60000
0!
0,
1%
#65000
1!
1,
0%
1D
1.
1-
00
0/
12
11
#70000
0!
0,
1%
#75000
1!
1,
0%
1A
0B
0C
0D
03
02
01
10
1/
0.
0-
13
#80000
0!
0,
1%
#85000
1!
1,
0%
1D
1.
1-
#90000
0!
0,
1%
#95000
1!
1,
0%
1C
0D
00
0/
0.
0-
10
1/
#100000
0!
0,
1%
#105000
1!
1,
0%
1D
1.
1-
00
0/
#110000
0!
0,
1%
#115000
1!
1,
0%
1B
0C
0D
12
11
10
1/
0.
0-
03
02
01
13
#120000
0!
0,
1%
#125000
1!
1,
0%
1D
1.
1-
#130000
0!
0,
1%
#135000
1!
1,
0%
1C
0D
00
0/
0.
0-
12
11
10
1/
03
02
01
13
#140000
0!
0,
1%
#145000
1!
1,
0%
1D
1.
1-
00
0/
12
11
03
#150000
0!
0,
1%
#155000
1!
1,
0%
1@
0A
0B
0C
0D
14
16
13
02
01
10
1/
0.
0-
#160000
0!
0,
1%
#165000
1!
1,
0%
1D
1.
1-
#170000
0!
0,
1%
#175000
1!
1,
0%
1C
0D
00
0/
0.
0-
10
1/
#180000
0!
0,
1%
#185000
1!
1,
0%
1D
1.
1-
00
0/
#190000
0!
0,
1%
#195000
1!
1,
0%
1B
0C
0D
06
12
11
10
1/
0.
0-
02
01
#200000
0!
0,
1%
#205000
1!
1,
0%
1D
18
1.
1-
19
#210000
0!
0,
1%
#215000
1!
1,
0%
0>
1=
1C
0D
00
0/
0.
0-
0$
1"
12
11
10
1/
02
01
#220000
0!
0,
1%
#225000
1!
1,
0%
1D
1.
1-
00
0/
12
11
#230000
0!
0,
1%
#235000
1!
1,
0%
1A
0B
0C
0D
03
08
02
01
10
1/
0.
0-
13
#240000
0!
0,
1%
#245000
1!
1,
0%
1D
1.
1-
#250000
0!
0,
1%
#255000
1!
1,
0%
1C
0D
00
0/
0.
0-
10
1/
#260000
0!
0,
1%
#265000
1!
1,
0%
1D
1.
1-
00
0/
#270000
0!
0,
1%
#275000
1!
1,
0%
1B
0C
0D
12
11
10
1/
0.
0-
03
02
01
13
#280000
0!
0,
1%
#285000
1!
1,
0%
1D
18
1.
1-
#290000
0!
0,
1%
#295000
1!
1,
0%
1C
0D
00
0/
0.
0-
12
11
10
1/
03
02
01
13
#300000
0!
0,
1%
#305000
1!
1,
0%
1D
1.
1-
00
0/
12
11
03
#310000
0!
0,
1%
#315000
1!
1,
0%
1?
0@
0A
0B
0C
0D
08
04
16
13
02
01
10
1/
0.
0-
#320000
0!
0,
1%
#325000
1!
1,
0%
1D
1.
1-
#330000
0!
0,
1%
#335000
1!
1,
0%
1C
0D
00
0/
0.
0-
10
1/
#340000
0!
0,
1%
#345000
1!
1,
0%
1D
1.
1-
00
0/
#350000
0!
0,
1%
#355000
1!
1,
0%
1B
0C
0D
06
12
11
10
1/
0.
0-
02
01
#360000
0!
0,
1%
#365000
1!
1,
0%
1D
1.
1-
#370000
0!
0,
1%
#375000
1!
1,
0%
1C
0D
00
0/
0.
0-
12
11
10
1/
02
01
#380000
0!
0,
1%
#385000
1!
1,
0%
1D
1:
1.
1-
1;
00
0/
12
11
#390000
0!
0,
1%
#395000
1!
1,
0%
0=
1<
1A
0B
0C
0D
03
0:
02
01
10
1/
0.
0-
0"
1#
13
#400000
0!
0,
1%
#405000
1!
1,
0%
1D
1.
1-
#410000
0!
0,
1%
#415000
1!
1,
0%
1C
0D
00
0/
0.
0-
10
1/
#420000
0!
0,
1%
#425000
1!
1,
0%
1D
1.
1-
00
0/
#430000
0!
0,
1%
#435000
1!
1,
0%
1B
0C
0D
12
11
10
1/
0.
0-
03
02
01
13
#440000
0!
0,
1%
#445000
1!
1,
0%
1D
1.
1-
#450000
0!
0,
1%
#455000
1!
1,
0%
1C
0D
00
0/
0.
0-
12
11
10
1/
03
02
01
13
#460000
0!
0,
1%
#465000
1!
1,
0%
1D
1:
1.
1-
00
0/
12
11
03
#470000
0!
0,
1%
#475000
1!
1,
0%
1@
0A
0B
0C
0D
17
14
16
13
0:
02
01
10
1/
0.
0-
07
#480000
0!
0,
1%
#485000
1!
1,
0%
1D
1.
1-
#490000
0!
0,
1%
#495000
1!
1,
0%
1C
0D
17
00
0/
0.
0-
10
1/
#500000
0!
0,
1%
#505000
1!
1,
0%
0?
0@
0C
0;
09
07
04
#510000
0!
0,
1%
#515000
1!
1,
0%
1>
0<
1D
1.
1-
1$
0#
#520000
0!
0,
1%
#525000
1!
1,
0%
1C
0D
00
0/
0.
0-
10
1/
#530000
0!
0,
1%
#535000
1!
1,
0%
1D
1.
1-
00
0/
#540000
0!
0,
1%
#545000
1!
1,
0%
1B
0C
0D
06
12
11
10
1/
0.
0-
02
01
#550000
0!
0,
1%
#555000
1!
1,
0%
1D
1.
1-
#560000
0!
0,
1%
#565000
1!
1,
0%
1C
0D
00
0/
0.
0-
12
11
10
1/
02
01
#570000
0!
0,
1%
#575000
1!
1,
0%
1D
1.
1-
00
0/
12
11
#580000
0!
0,
1%
#585000
1!
1,
0%
1A
0B
0C
0D
03
02
01
10
1/
0.
0-
13
#590000
0!
0,
1%
#595000
1!
1,
0%
1D
1.
1-
#600000
0!
0,
1%
#605000
1!
1,
0%
1C
0D
00
0/
0.
0-
10
1/
#610000
0!
0,
1%
#615000
1!
1,
0%
1D
1.
1-
00
0/
#620000
0!
0,
1%
#625000
1!
1,
0%
1B
0C
0D
12
11
10
1/
0.
0-
03
02
01
13
#630000
0!
0,
1%
#635000
1!
1,
0%
1D
1.
1-
#640000
0!
0,
1%
#645000
1!
1,
0%
1C
0D
00
0/
0.
0-
12
11
10
1/
03
02
01
13
#650000
0!
0,
1%
#655000
1!
1,
0%
1D
1.
1-
00
0/
12
11
03
#660000
0!
0,
1%
#665000
1!
1,
0%
1@
0A
0B
0C
0D
14
16
13
02
01
10
1/
0.
0-
#670000
0!
0,
1%
#675000
1!
1,
0%
1D
1.
1-
#680000
0!
0,
1%
#685000
1!
1,
0%
1C
0D
00
0/
0.
0-
10
1/
#690000
0!
0,
1%
#695000
1!
1,
0%
1D
1.
1-
00
0/
#700000
0!
0,
1%
#705000
1!
1,
0%
1B
0C
0D
06
12
11
10
1/
0.
0-
02
01
#710000
0!
0,
1%
#715000
1!
1,
0%
1D
18
1.
1-
19
#720000
0!
0,
1%
#725000
1!
1,
0%
0>
1=
1C
0D
00
0/
0.
0-
0$
1"
12
11
10
1/
02
01
#730000
0!
0,
1%
#735000
1!
1,
0%
1D
1.
1-
00
0/
12
11
#740000
0!
0,
1%
#745000
1!
1,
0%
1A
0B
0C
0D
03
08
02
01
10
1/
0.
0-
13
#750000
0!
0,
1%
#755000
1!
1,
0%
1D
1.
1-
#760000
0!
0,
1%
#765000
1!
1,
0%
1C
0D
00
0/
0.
0-
10
1/
#770000
0!
0,
1%
#775000
1!
1,
0%
1D
1.
1-
00
0/
#780000
0!
0,
1%
#785000
1!
1,
0%
1B
0C
0D
12
11
10
1/
0.
0-
03
02
01
13
#790000
0!
0,
1%
#795000
1!
1,
0%
1D
18
1.
1-
#800000
0!
0,
1%
#805000
1!
1,
0%
1C
0D
00
0/
0.
0-
12
11
10
1/
03
02
01
13
#810000
0!
0,
1%
#815000
1!
1,
0%
1D
1.
1-
00
0/
12
11
03
#820000
0!
0,
1%
#825000
1!
1,
0%
1?
0@
0A
0B
0C
0D
08
04
16
13
02
01
10
1/
0.
0-
#830000
0!
0,
1%
#835000
1!
1,
0%
1D
1.
1-
#840000
0!
0,
1%
#845000
1!
1,
0%
1C
0D
00
0/
0.
0-
10
1/
#850000
0!
0,
1%
#855000
1!
1,
0%
1D
1.
1-
00
0/
#860000
0!
0,
1%
#865000
1!
1,
0%
1B
0C
0D
06
12
11
10
1/
0.
0-
02
01
#870000
0!
0,
1%
#875000
1!
1,
0%
1D
1.
1-
#880000
0!
0,
1%
#885000
1!
1,
0%
1C
0D
00
0/
0.
0-
12
11
10
1/
02
01
#890000
0!
0,
1%
#895000
1!
1,
0%
1D
1:
1.
1-
1;
00
0/
12
11
#900000
0!
0,
1%
#905000
1!
1,
0%
0=
1<
1A
0B
0C
0D
03
0:
02
01
10
1/
0.
0-
0"
1#
13
#910000
0!
0,
1%
#915000
1!
1,
0%
1D
1.
1-
#920000
0!
0,
1%
#925000
1!
1,
0%
1C
0D
00
0/
0.
0-
10
1/
#930000
0!
0,
1%
#935000
1!
1,
0%
1D
1.
1-
00
0/
#940000
0!
0,
1%
#945000
1!
1,
0%
1B
0C
0D
12
11
10
1/
0.
0-
03
02
01
13
#950000
0!
0,
1%
#955000
1!
1,
0%
1D
1.
1-
#960000
0!
0,
1%
#965000
1!
1,
0%
1C
0D
00
0/
0.
0-
12
11
10
1/
03
02
01
13
#970000
0!
0,
1%
#975000
1!
1,
0%
1D
1:
1.
1-
00
0/
12
11
03
#980000
0!
0,
1%
#985000
1!
1,
0%
1@
0A
0B
0C
0D
17
14
16
13
0:
02
01
10
1/
0.
0-
07
#990000
0!
0,
1%
#995000
1!
1,
0%
1D
1.
1-
