6toSemestre/LabDiseñoDeSistemasDigitales/PracticasCyR/Practica1/simulation/qsim/Practica1.msim.vcd
$comment
	File created using the following command:
		vcd file Practica1.msim.vcd -direction
$end
$date
	Fri Feb 23 11:03:14 2024
$end
$version
	ModelSim Version 10.1d
$end
$timescale
	1ps
$end
$scope module Exceso3_vlg_vec_tst $end
$var reg 1 ! systemA $end
$var reg 1 " systemB $end
$var reg 1 # systemC $end
$var reg 1 $ systemD $end
$var wire 1 % w $end
$var wire 1 & x $end
$var wire 1 ' y $end
$var wire 1 ( z $end
$var wire 1 ) sampler $end
$scope module i1 $end
$var wire 1 * gnd $end
$var wire 1 + vcc $end
$var wire 1 , unknown $end
$var tri1 1 - devclrn $end
$var tri1 1 . devpor $end
$var tri1 1 / devoe $end
$var wire 1 0 w~output_o $end
$var wire 1 1 x~output_o $end
$var wire 1 2 y~output_o $end
$var wire 1 3 z~output_o $end
$var wire 1 4 systemC~input_o $end
$var wire 1 5 systemD~input_o $end
$var wire 1 6 systemB~input_o $end
$var wire 1 7 systemA~input_o $end
$var wire 1 8 OR2|z~combout $end
$var wire 1 9 OR5|z~0_combout $end
$var wire 1 : OR3|z~0_combout $end
$upscope $end
$upscope $end
$enddefinitions $end
#0
$dumpvars
0!
0"
0#
0$
0%
0&
1'
1(
x)
0*
1+
x,
1-
1.
1/
00
01
12
13
04
05
06
07
08
09
0:
$end
#50000
1$
15
0)
1:
03
0(
19
02
11
0'
1&
#100000
1#
0$
14
05
1)
13
1(
#150000
1$
15
0)
0:
03
0(
12
1'
#200000
1"
0#
0$
16
04
05
1)
13
1(
#250000
1$
15
0)
1:
03
0(
09
18
02
01
10
0'
0&
1%
#300000
1#
0$
14
05
1)
13
1(
#350000
1$
15
0)
0:
03
0(
12
1'
#400000
1!
0"
0#
0$
17
06
04
05
1)
13
1(
#450000
1$
15
0)
1:
03
0(
19
02
11
0'
1&
#500000
1#
0$
14
05
1)
13
1(
#550000
1$
15
0)
0:
03
0(
12
1'
#600000
1"
0#
0$
16
04
05
1)
13
1(
#650000
1$
15
0)
1:
03
0(
09
02
01
0'
0&
#700000
1#
0$
14
05
1)
13
1(
#750000
1$
15
0)
0:
03
0(
12
1'
#800000
0!
0"
0#
0$
07
06
04
05
1)
13
1(
08
00
0%
#850000
1$
15
0)
1:
03
0(
19
02
11
0'
1&
#900000
1#
0$
14
05
1)
13
1(
#950000
1$
15
0)
0:
03
0(
12
1'
