5toSemestre/lab_diseño_logico/Practica8/Conta/simulation/qsim/Conta.msim.vcd
$comment
	File created using the following command:
		vcd file Conta.msim.vcd -direction
$end
$date
	Wed Nov 15 13:01:26 2023
$end
$version
	ModelSim Version 10.1d
$end
$timescale
	1ps
$end
$scope module Conta_vlg_vec_tst $end
$var reg 1 ! clk $end
$var wire 1 " L1 [6] $end
$var wire 1 # L1 [5] $end
$var wire 1 $ L1 [4] $end
$var wire 1 % L1 [3] $end
$var wire 1 & L1 [2] $end
$var wire 1 ' L1 [1] $end
$var wire 1 ( L1 [0] $end
$var wire 1 ) L2 [6] $end
$var wire 1 * L2 [5] $end
$var wire 1 + L2 [4] $end
$var wire 1 , L2 [3] $end
$var wire 1 - L2 [2] $end
$var wire 1 . L2 [1] $end
$var wire 1 / L2 [0] $end
$var wire 1 0 res [3] $end
$var wire 1 1 res [2] $end
$var wire 1 2 res [1] $end
$var wire 1 3 res [0] $end
$var wire 1 4 sampler $end
$scope module i1 $end
$var wire 1 5 gnd $end
$var wire 1 6 vcc $end
$var wire 1 7 unknown $end
$var tri1 1 8 devclrn $end
$var tri1 1 9 devpor $end
$var tri1 1 : devoe $end
$var wire 1 ; clk~combout $end
$var wire 1 < Add0~0_combout $end
$var wire 1 = Add0~2 $end
$var wire 1 > Add0~2COUT1_25 $end
$var wire 1 ? Add0~5_combout $end
$var wire 1 @ Add0~7 $end
$var wire 1 A Add0~7COUT1_27 $end
$var wire 1 B Add0~10_combout $end
$var wire 1 C Add0~12 $end
$var wire 1 D Add0~12COUT1_29 $end
$var wire 1 E Add0~15_combout $end
$var wire 1 F Equal0~0_combout $end
$var wire 1 G miniD~regout $end
$var wire 1 H c [25] $end
$var wire 1 I c [24] $end
$var wire 1 J c [23] $end
$var wire 1 K c [22] $end
$var wire 1 L c [21] $end
$var wire 1 M c [20] $end
$var wire 1 N c [19] $end
$var wire 1 O c [18] $end
$var wire 1 P c [17] $end
$var wire 1 Q c [16] $end
$var wire 1 R c [15] $end
$var wire 1 S c [14] $end
$var wire 1 T c [13] $end
$var wire 1 U c [12] $end
$var wire 1 V c [11] $end
$var wire 1 W c [10] $end
$var wire 1 X c [9] $end
$var wire 1 Y c [8] $end
$var wire 1 Z c [7] $end
$var wire 1 [ c [6] $end
$var wire 1 \ c [5] $end
$var wire 1 ] c [4] $end
$var wire 1 ^ c [3] $end
$var wire 1 _ c [2] $end
$var wire 1 ` c [1] $end
$var wire 1 a c [0] $end
$upscope $end
$upscope $end
$enddefinitions $end
#0
$dumpvars
0!
0(
0'
0&
0%
0$
0#
0"
1/
1.
1-
1,
1+
1*
1)
13
12
11
10
x4
05
16
x7
18
19
1:
0;
1<
0=
0>
0?
1@
1A
0B
0C
0D
0E
1F
0G
0a
0`
0_
0^
z]
z\
z[
zZ
zY
zX
zW
zV
zU
zT
zS
zR
zQ
zP
zO
zN
zM
zL
zK
zJ
zI
zH
$end
#25000
1!
1;
04
1G
1a
1>
1=
0<
03
02
01
00
1?
0F
#50000
0!
0;
14
#75000
1!
1;
04
1`
0a
0A
0@
0?
0>
0=
1<
1B
1F
1A
1@
1?
0B
0F
#100000
0!
0;
14
#125000
1!
1;
04
1a
1>
1=
0<
0A
0@
0?
1B
#150000
0!
0;
14
#175000
1!
1;
04
0`
0a
1_
1A
1@
1?
0>
0=
1<
1D
1C
0B
0D
0C
1B
0?
1E
0E
1F
#200000
0!
0;
14
#225000
1!
1;
04
1a
1>
1=
0<
1?
0F
#250000
0!
0;
14
#275000
1!
1;
04
1`
0a
0A
0@
0?
0>
0=
1<
1D
1C
0B
1F
1A
1@
1?
1E
0D
0C
1B
0F
0E
#300000
0!
0;
14
#325000
1!
1;
04
1a
1>
1=
0<
0A
0@
0?
1D
1C
0B
1E
#350000
0!
0;
14
#375000
1!
1;
04
1^
0`
0a
0_
0E
1A
1@
1?
0>
0=
1<
0D
0C
1B
0B
0?
1E
1F
#400000
0!
0;
14
#425000
1!
1;
04
1a
1>
1=
0<
1?
0F
#450000
0!
0;
14
#475000
1!
1;
04
1`
0a
0A
0@
0?
0>
0=
1<
1B
1F
1A
1@
1?
0B
0F
#500000
0!
0;
14
#525000
1!
1;
04
1a
1>
1=
0<
0A
0@
0?
1B
#550000
0!
0;
14
#575000
1!
1;
04
0`
0a
1_
1A
1@
1?
0>
0=
1<
1D
1C
0B
0D
0C
1B
0?
0E
1E
1F
#600000
0!
0;
14
#625000
1!
1;
04
1a
1>
1=
0<
1?
0F
#650000
0!
0;
14
#675000
1!
1;
04
1`
0a
0A
0@
0?
0>
0=
1<
1D
1C
0B
1F
1A
1@
1?
0E
0D
0C
1B
0F
1E
#700000
0!
0;
14
#725000
1!
1;
04
1a
1>
1=
0<
0A
0@
0?
1D
1C
0B
0E
#750000
0!
0;
14
#775000
1!
1;
04
0^
0`
0a
0_
1E
1A
1@
1?
0>
0=
1<
0D
0C
1B
0B
0?
0E
1F
#800000
0!
0;
14
#825000
1!
1;
04
0G
1a
1>
1=
0<
13
12
11
10
1?
0F
#850000
0!
0;
14
#875000
1!
1;
04
1`
0a
0A
0@
0?
0>
0=
1<
1B
1F
1A
1@
1?
0B
0F
#900000
0!
0;
14
#925000
1!
1;
04
1a
1>
1=
0<
0A
0@
0?
1B
#950000
0!
0;
14
#975000
1!
1;
04
0`
0a
1_
1A
1@
1?
0>
0=
1<
1D
1C
0B
0D
0C
1B
0?
1E
0E
1F
