5toSemestre/lab_diseño_logico/Practica8/Conta/simulation/qsim/Conta.msim.vcd
$comment
	File created using the following command:
		vcd file Conta.msim.vcd -direction
$end
$date
	Tue Nov 14 21:24:22 2023
$end
$version
	ModelSim Version 10.1d
$end
$timescale
	1ps
$end
$scope module Conta_vlg_vec_tst $end
$var reg 1 ! clk $end
$var wire 1 " L1 [6] $end
$var wire 1 # L1 [5] $end
$var wire 1 $ L1 [4] $end
$var wire 1 % L1 [3] $end
$var wire 1 & L1 [2] $end
$var wire 1 ' L1 [1] $end
$var wire 1 ( L1 [0] $end
$var wire 1 ) L2 [6] $end
$var wire 1 * L2 [5] $end
$var wire 1 + L2 [4] $end
$var wire 1 , L2 [3] $end
$var wire 1 - L2 [2] $end
$var wire 1 . L2 [1] $end
$var wire 1 / L2 [0] $end
$var wire 1 0 res [3] $end
$var wire 1 1 res [2] $end
$var wire 1 2 res [1] $end
$var wire 1 3 res [0] $end
$var wire 1 4 sampler $end
$scope module i1 $end
$var wire 1 5 gnd $end
$var wire 1 6 vcc $end
$var wire 1 7 unknown $end
$var tri1 1 8 devclrn $end
$var tri1 1 9 devpor $end
$var tri1 1 : devoe $end
$var wire 1 ; clk~combout $end
$var wire 1 < Add0~0_combout $end
$var wire 1 = Add0~2 $end
$var wire 1 > Add0~2COUT1_25 $end
$var wire 1 ? Add0~5_combout $end
$var wire 1 @ Add0~7 $end
$var wire 1 A Add0~7COUT1_27 $end
$var wire 1 B Add0~10_combout $end
$var wire 1 C Add0~12 $end
$var wire 1 D Add0~12COUT1_29 $end
$var wire 1 E Add0~15_combout $end
$var wire 1 F Equal0~0_combout $end
$var wire 1 G miniD~regout $end
$var wire 1 H c [25] $end
$var wire 1 I c [24] $end
$var wire 1 J c [23] $end
$var wire 1 K c [22] $end
$var wire 1 L c [21] $end
$var wire 1 M c [20] $end
$var wire 1 N c [19] $end
$var wire 1 O c [18] $end
$var wire 1 P c [17] $end
$var wire 1 Q c [16] $end
$var wire 1 R c [15] $end
$var wire 1 S c [14] $end
$var wire 1 T c [13] $end
$var wire 1 U c [12] $end
$var wire 1 V c [11] $end
$var wire 1 W c [10] $end
$var wire 1 X c [9] $end
$var wire 1 Y c [8] $end
$var wire 1 Z c [7] $end
$var wire 1 [ c [6] $end
$var wire 1 \ c [5] $end
$var wire 1 ] c [4] $end
$var wire 1 ^ c [3] $end
$var wire 1 _ c [2] $end
$var wire 1 ` c [1] $end
$var wire 1 a c [0] $end
$upscope $end
$upscope $end
$enddefinitions $end
#0
$dumpvars
0!
0(
0'
0&
0%
0$
0#
0"
1/
1.
1-
1,
1+
1*
1)
13
12
11
10
x4
05
16
x7
18
19
1:
0;
1<
0=
0>
0?
1@
1A
0B
0C
0D
0E
1F
0G
0a
0`
0_
0^
z]
z\
z[
zZ
zY
zX
zW
zV
zU
zT
zS
zR
zQ
zP
zO
zN
zM
zL
zK
zJ
zI
zH
$end
#5000
1!
1;
04
1G
1a
1>
1=
0<
03
02
01
00
1?
0F
#10000
0!
0;
14
#15000
1!
1;
04
1`
0a
0A
0@
0?
0>
0=
1<
1B
1F
1A
1@
1?
0B
0F
#20000
0!
0;
14
#25000
1!
1;
04
1a
1>
1=
0<
0A
0@
0?
1B
#30000
0!
0;
14
#35000
1!
1;
04
0`
0a
1_
1A
1@
1?
0>
0=
1<
1D
1C
0B
0D
0C
1B
0?
1E
0E
1F
#40000
0!
0;
14
#45000
1!
1;
04
1a
1>
1=
0<
1?
0F
#50000
0!
0;
14
#55000
1!
1;
04
1`
0a
0A
0@
0?
0>
0=
1<
1D
1C
0B
1F
1A
1@
1?
1E
0D
0C
1B
0F
0E
#60000
0!
0;
14
#65000
1!
1;
04
1a
1>
1=
0<
0A
0@
0?
1D
1C
0B
1E
#70000
0!
0;
14
#75000
1!
1;
04
1^
0`
0a
0_
0E
1A
1@
1?
0>
0=
1<
0D
0C
1B
0B
0?
1E
1F
#80000
0!
0;
14
#85000
1!
1;
04
1a
1>
1=
0<
1?
0F
#90000
0!
0;
14
#95000
1!
1;
04
1`
0a
0A
0@
0?
0>
0=
1<
1B
1F
1A
1@
1?
0B
0F
#100000
0!
0;
14
#105000
1!
1;
04
1a
1>
1=
0<
0A
0@
0?
1B
#110000
0!
0;
14
#115000
1!
1;
04
0`
0a
1_
1A
1@
1?
0>
0=
1<
1D
1C
0B
0D
0C
1B
0?
0E
1E
1F
#120000
0!
0;
14
#125000
1!
1;
04
1a
1>
1=
0<
1?
0F
#130000
0!
0;
14
#135000
1!
1;
04
1`
0a
0A
0@
0?
0>
0=
1<
1D
1C
0B
1F
1A
1@
1?
0E
0D
0C
1B
0F
1E
#140000
0!
0;
14
#145000
1!
1;
04
1a
1>
1=
0<
0A
0@
0?
1D
1C
0B
0E
#150000
0!
0;
14
#155000
1!
1;
04
0^
0`
0a
0_
1E
1A
1@
1?
0>
0=
1<
0D
0C
1B
0B
0?
0E
1F
#160000
0!
0;
14
#165000
1!
1;
04
0G
1a
1>
1=
0<
13
12
11
10
1?
0F
#170000
0!
0;
14
#175000
1!
1;
04
1`
0a
0A
0@
0?
0>
0=
1<
1B
1F
1A
1@
1?
0B
0F
#180000
0!
0;
14
#185000
1!
1;
04
1a
1>
1=
0<
0A
0@
0?
1B
#190000
0!
0;
14
#195000
1!
1;
04
0`
0a
1_
1A
1@
1?
0>
0=
1<
1D
1C
0B
0D
0C
1B
0?
1E
0E
1F
#200000
0!
0;
14
#205000
1!
1;
04
1a
1>
1=
0<
1?
0F
#210000
0!
0;
14
#215000
1!
1;
04
1`
0a
0A
0@
0?
0>
0=
1<
1D
1C
0B
1F
1A
1@
1?
1E
0D
0C
1B
0F
0E
#220000
0!
0;
14
#225000
1!
1;
04
1a
1>
1=
0<
0A
0@
0?
1D
1C
0B
1E
#230000
0!
0;
14
#235000
1!
1;
04
1^
0`
0a
0_
0E
1A
1@
1?
0>
0=
1<
0D
0C
1B
0B
0?
1E
1F
#240000
0!
0;
14
#245000
1!
1;
04
1a
1>
1=
0<
1?
0F
#250000
0!
0;
14
#255000
1!
1;
04
1`
0a
0A
0@
0?
0>
0=
1<
1B
1F
1A
1@
1?
0B
0F
#260000
0!
0;
14
#265000
1!
1;
04
1a
1>
1=
0<
0A
0@
0?
1B
#270000
0!
0;
14
#275000
1!
1;
04
0`
0a
1_
1A
1@
1?
0>
0=
1<
1D
1C
0B
0D
0C
1B
0?
0E
1E
1F
#280000
0!
0;
14
#285000
1!
1;
04
1a
1>
1=
0<
1?
0F
#290000
0!
0;
14
#295000
1!
1;
04
1`
0a
0A
0@
0?
0>
0=
1<
1D
1C
0B
1F
1A
1@
1?
0E
0D
0C
1B
0F
1E
#300000
0!
0;
14
#305000
1!
1;
04
1a
1>
1=
0<
0A
0@
0?
1D
1C
0B
0E
#310000
0!
0;
14
#315000
1!
1;
04
0^
0`
0a
0_
1E
1A
1@
1?
0>
0=
1<
0D
0C
1B
0B
0?
0E
1F
#320000
0!
0;
14
#325000
1!
1;
04
1G
1a
1>
1=
0<
03
02
01
00
1?
0F
#330000
0!
0;
14
#335000
1!
1;
04
1`
0a
0A
0@
0?
0>
0=
1<
1B
1F
1A
1@
1?
0B
0F
#340000
0!
0;
14
#345000
1!
1;
04
1a
1>
1=
0<
0A
0@
0?
1B
#350000
0!
0;
14
#355000
1!
1;
04
0`
0a
1_
1A
1@
1?
0>
0=
1<
1D
1C
0B
0D
0C
1B
0?
1E
0E
1F
#360000
0!
0;
14
#365000
1!
1;
04
1a
1>
1=
0<
1?
0F
#370000
0!
0;
14
#375000
1!
1;
04
1`
0a
0A
0@
0?
0>
0=
1<
1D
1C
0B
1F
1A
1@
1?
1E
0D
0C
1B
0F
0E
#380000
0!
0;
14
#385000
1!
1;
04
1a
1>
1=
0<
0A
0@
0?
1D
1C
0B
1E
#390000
0!
0;
14
#395000
1!
1;
04
1^
0`
0a
0_
0E
1A
1@
1?
0>
0=
1<
0D
0C
1B
0B
0?
1E
1F
#400000
0!
0;
14
#405000
1!
1;
04
1a
1>
1=
0<
1?
0F
#410000
0!
0;
14
#415000
1!
1;
04
1`
0a
0A
0@
0?
0>
0=
1<
1B
1F
1A
1@
1?
0B
0F
#420000
0!
0;
14
#425000
1!
1;
04
1a
1>
1=
0<
0A
0@
0?
1B
#430000
0!
0;
14
#435000
1!
1;
04
0`
0a
1_
1A
1@
1?
0>
0=
1<
1D
1C
0B
0D
0C
1B
0?
0E
1E
1F
#440000
0!
0;
14
#445000
1!
1;
04
1a
1>
1=
0<
1?
0F
#450000
0!
0;
14
#455000
1!
1;
04
1`
0a
0A
0@
0?
0>
0=
1<
1D
1C
0B
1F
1A
1@
1?
0E
0D
0C
1B
0F
1E
#460000
0!
0;
14
#465000
1!
1;
04
1a
1>
1=
0<
0A
0@
0?
1D
1C
0B
0E
#470000
0!
0;
14
#475000
1!
1;
04
0^
0`
0a
0_
1E
1A
1@
1?
0>
0=
1<
0D
0C
1B
0B
0?
0E
1F
#480000
0!
0;
14
#485000
1!
1;
04
0G
1a
1>
1=
0<
13
12
11
10
1?
0F
#490000
0!
0;
14
#495000
1!
1;
04
1`
0a
0A
0@
0?
0>
0=
1<
1B
1F
1A
1@
1?
0B
0F
#500000
0!
0;
14
#505000
1!
1;
04
1a
1>
1=
0<
0A
0@
0?
1B
#510000
0!
0;
14
#515000
1!
1;
04
0`
0a
1_
1A
1@
1?
0>
0=
1<
1D
1C
0B
0D
0C
1B
0?
1E
0E
1F
#520000
0!
0;
14
#525000
1!
1;
04
1a
1>
1=
0<
1?
0F
#530000
0!
0;
14
#535000
1!
1;
04
1`
0a
0A
0@
0?
0>
0=
1<
1D
1C
0B
1F
1A
1@
1?
1E
0D
0C
1B
0F
0E
#540000
0!
0;
14
#545000
1!
1;
04
1a
1>
1=
0<
0A
0@
0?
1D
1C
0B
1E
#550000
0!
0;
14
#555000
1!
1;
04
1^
0`
0a
0_
0E
1A
1@
1?
0>
0=
1<
0D
0C
1B
0B
0?
1E
1F
#560000
0!
0;
14
#565000
1!
1;
04
1a
1>
1=
0<
1?
0F
#570000
0!
0;
14
#575000
1!
1;
04
1`
0a
0A
0@
0?
0>
0=
1<
1B
1F
1A
1@
1?
0B
0F
#580000
0!
0;
14
#585000
1!
1;
04
1a
1>
1=
0<
0A
0@
0?
1B
#590000
0!
0;
14
#595000
1!
1;
04
0`
0a
1_
1A
1@
1?
0>
0=
1<
1D
1C
0B
0D
0C
1B
0?
0E
1E
1F
#600000
0!
0;
14
#605000
1!
1;
04
1a
1>
1=
0<
1?
0F
#610000
0!
0;
14
#615000
1!
1;
04
1`
0a
0A
0@
0?
0>
0=
1<
1D
1C
0B
1F
1A
1@
1?
0E
0D
0C
1B
0F
1E
#620000
0!
0;
14
#625000
1!
1;
04
1a
1>
1=
0<
0A
0@
0?
1D
1C
0B
0E
#630000
0!
0;
14
#635000
1!
1;
04
0^
0`
0a
0_
1E
1A
1@
1?
0>
0=
1<
0D
0C
1B
0B
0?
0E
1F
#640000
0!
0;
14
#645000
1!
1;
04
1G
1a
1>
1=
0<
03
02
01
00
1?
0F
#650000
0!
0;
14
#655000
1!
1;
04
1`
0a
0A
0@
0?
0>
0=
1<
1B
1F
1A
1@
1?
0B
0F
#660000
0!
0;
14
#665000
1!
1;
04
1a
1>
1=
0<
0A
0@
0?
1B
#670000
0!
0;
14
#675000
1!
1;
04
0`
0a
1_
1A
1@
1?
0>
0=
1<
1D
1C
0B
0D
0C
1B
0?
1E
0E
1F
#680000
0!
0;
14
#685000
1!
1;
04
1a
1>
1=
0<
1?
0F
#690000
0!
0;
14
#695000
1!
1;
04
1`
0a
0A
0@
0?
0>
0=
1<
1D
1C
0B
1F
1A
1@
1?
1E
0D
0C
1B
0F
0E
#700000
0!
0;
14
#705000
1!
1;
04
1a
1>
1=
0<
0A
0@
0?
1D
1C
0B
1E
#710000
0!
0;
14
#715000
1!
1;
04
1^
0`
0a
0_
0E
1A
1@
1?
0>
0=
1<
0D
0C
1B
0B
0?
1E
1F
#720000
0!
0;
14
#725000
1!
1;
04
1a
1>
1=
0<
1?
0F
#730000
0!
0;
14
#735000
1!
1;
04
1`
0a
0A
0@
0?
0>
0=
1<
1B
1F
1A
1@
1?
0B
0F
#740000
0!
0;
14
#745000
1!
1;
04
1a
1>
1=
0<
0A
0@
0?
1B
#750000
0!
0;
14
#755000
1!
1;
04
0`
0a
1_
1A
1@
1?
0>
0=
1<
1D
1C
0B
0D
0C
1B
0?
0E
1E
1F
#760000
0!
0;
14
#765000
1!
1;
04
1a
1>
1=
0<
1?
0F
#770000
0!
0;
14
#775000
1!
1;
04
1`
0a
0A
0@
0?
0>
0=
1<
1D
1C
0B
1F
1A
1@
1?
0E
0D
0C
1B
0F
1E
#780000
0!
0;
14
#785000
1!
1;
04
1a
1>
1=
0<
0A
0@
0?
1D
1C
0B
0E
#790000
0!
0;
14
#795000
1!
1;
04
0^
0`
0a
0_
1E
1A
1@
1?
0>
0=
1<
0D
0C
1B
0B
0?
0E
1F
#800000
0!
0;
14
#805000
1!
1;
04
0G
1a
1>
1=
0<
13
12
11
10
1?
0F
#810000
0!
0;
14
#815000
1!
1;
04
1`
0a
0A
0@
0?
0>
0=
1<
1B
1F
1A
1@
1?
0B
0F
#820000
0!
0;
14
#825000
1!
1;
04
1a
1>
1=
0<
0A
0@
0?
1B
#830000
0!
0;
14
#835000
1!
1;
04
0`
0a
1_
1A
1@
1?
0>
0=
1<
1D
1C
0B
0D
0C
1B
0?
1E
0E
1F
#840000
0!
0;
14
#845000
1!
1;
04
1a
1>
1=
0<
1?
0F
#850000
0!
0;
14
#855000
1!
1;
04
1`
0a
0A
0@
0?
0>
0=
1<
1D
1C
0B
1F
1A
1@
1?
1E
0D
0C
1B
0F
0E
#860000
0!
0;
14
#865000
1!
1;
04
1a
1>
1=
0<
0A
0@
0?
1D
1C
0B
1E
#870000
0!
0;
14
#875000
1!
1;
04
1^
0`
0a
0_
0E
1A
1@
1?
0>
0=
1<
0D
0C
1B
0B
0?
1E
1F
#880000
0!
0;
14
#885000
1!
1;
04
1a
1>
1=
0<
1?
0F
#890000
0!
0;
14
#895000
1!
1;
04
1`
0a
0A
0@
0?
0>
0=
1<
1B
1F
1A
1@
1?
0B
0F
#900000
0!
0;
14
#905000
1!
1;
04
1a
1>
1=
0<
0A
0@
0?
1B
#910000
0!
0;
14
#915000
1!
1;
04
0`
0a
1_
1A
1@
1?
0>
0=
1<
1D
1C
0B
0D
0C
1B
0?
0E
1E
1F
#920000
0!
0;
14
#925000
1!
1;
04
1a
1>
1=
0<
1?
0F
#930000
0!
0;
14
#935000
1!
1;
04
1`
0a
0A
0@
0?
0>
0=
1<
1D
1C
0B
1F
1A
1@
1?
0E
0D
0C
1B
0F
1E
#940000
0!
0;
14
#945000
1!
1;
04
1a
1>
1=
0<
0A
0@
0?
1D
1C
0B
0E
#950000
0!
0;
14
#955000
1!
1;
04
0^
0`
0a
0_
1E
1A
1@
1?
0>
0=
1<
0D
0C
1B
0B
0?
0E
1F
#960000
0!
0;
14
#965000
1!
1;
04
1G
1a
1>
1=
0<
03
02
01
00
1?
0F
#970000
0!
0;
14
#975000
1!
1;
04
1`
0a
0A
0@
0?
0>
0=
1<
1B
1F
1A
1@
1?
0B
0F
#980000
0!
0;
14
#985000
1!
1;
04
1a
1>
1=
0<
0A
0@
0?
1B
#990000
0!
0;
14
#995000
1!
1;
04
0`
0a
1_
1A
1@
1?
0>
0=
1<
1D
1C
0B
0D
0C
1B
0?
1E
0E
1F
