5toSemestre/lab diseño logico/Pracatica 5/Carrito/simulation/qsim/CarritoMueve.msim.vcd
$comment
	File created using the following command:
		vcd file CarritoMueve.msim.vcd -direction
$end
$date
	Mon Sep 25 22:18:25 2023
$end
$version
	ModelSim Version 10.1d
$end
$timescale
	1ps
$end
$scope module CarritoMueve_vlg_vec_tst $end
$var reg 1 ! clk $end
$var reg 4 " treg_ENTRADA [0:3] $end
$var reg 1 # rst $end
$var wire 1 $ al $end
$var wire 1 % av $end
$var wire 1 & ENTRADA [0] $end
$var wire 1 ' ENTRADA [1] $end
$var wire 1 ( ENTRADA [2] $end
$var wire 1 ) ENTRADA [3] $end
$var wire 1 * re $end
$var wire 1 + vd $end
$var wire 1 , vi $end
$var wire 1 - sampler $end
$scope module i1 $end
$var wire 1 . gnd $end
$var wire 1 / vcc $end
$var wire 1 0 unknown $end
$var tri1 1 1 devclrn $end
$var tri1 1 2 devpor $end
$var tri1 1 3 devoe $end
$var wire 1 4 clk~combout $end
$var wire 1 5 rst~combout $end
$var wire 1 6 ENTRADA[3]~reg0_regout $end
$var wire 1 7 ENTRADA[2]~reg0_regout $end
$var wire 1 8 ENTRADA[1]~reg0_regout $end
$var wire 1 9 ENTRADA[0]~reg0_regout $end
$var wire 1 : Mux0~0_combout $end
$var wire 1 ; Mux1~0_combout $end
$var wire 1 < Mux2~0_combout $end
$var wire 1 = Mux3~0_combout $end
$var wire 1 > Mux4~0_combout $end
$upscope $end
$upscope $end
$enddefinitions $end
#0
$dumpvars
0!
bz "
0#
0$
1%
0)
0(
0'
0&
0*
0+
0,
x-
0.
1/
x0
11
12
13
04
05
06
07
08
09
0:
0;
0<
0=
0>
$end
#10000
1!
14
0-
16
1)
#20000
0!
04
1-
#30000
1!
14
0-
17
06
1<
1(
0)
1+
#40000
0!
04
1-
#50000
1!
14
0-
16
1)
#60000
0!
04
1-
#70000
1!
14
0-
18
07
06
1=
0<
1'
0(
0)
1,
0+
#80000
0!
04
1-
#90000
1!
14
0-
16
1)
#100000
0!
04
1-
#110000
1!
14
0-
17
06
1>
0=
1<
1;
1:
1(
0)
1$
0,
1+
1*
0%
#120000
0!
04
1-
#130000
1!
14
0-
16
0<
0;
0:
1)
0+
0*
1%
#140000
0!
04
1-
#150000
1!
14
0-
19
08
07
06
1<
1;
1:
0>
1&
0'
0(
0)
1+
1*
0$
0%
#160000
0!
04
1-
#170000
1!
14
0-
16
0;
0:
1)
0*
1%
#180000
0!
04
1-
#190000
1!
14
0-
17
06
1(
0)
#200000
0!
04
1-
#210000
1!
14
0-
16
1)
#220000
0!
04
1-
#230000
1!
14
0-
18
07
06
1;
1:
1'
0(
0)
1*
0%
#240000
0!
04
1-
#250000
1!
14
0-
16
1=
0<
0;
1)
1,
0+
0*
#260000
0!
04
1-
#270000
1!
14
0-
17
06
1>
0=
1<
1;
1(
0)
1$
0,
1+
1*
#280000
0!
04
1-
#290000
1!
14
0-
16
0<
0;
1)
0+
0*
#300000
0!
04
1-
#310000
1!
14
0-
09
08
07
06
0:
0>
0&
0'
0(
0)
0$
1%
#320000
0!
04
1-
#330000
1!
14
0-
16
1)
#340000
0!
04
1-
#350000
1!
14
0-
17
06
1<
1(
0)
1+
#360000
0!
04
1-
#370000
1!
14
0-
16
1)
#380000
0!
04
1-
#390000
1!
14
0-
18
07
06
1=
0<
1'
0(
0)
1,
0+
#400000
0!
04
1-
#410000
1!
14
0-
16
1)
#420000
0!
04
1-
#430000
1!
14
0-
17
06
1>
0=
1<
1;
1:
1(
0)
1$
0,
1+
1*
0%
#440000
0!
04
1-
#450000
1!
14
0-
16
0<
0;
0:
1)
0+
0*
1%
#460000
0!
04
1-
#470000
1!
14
0-
19
08
07
06
1<
1;
1:
0>
1&
0'
0(
0)
1+
1*
0$
0%
#480000
0!
04
1-
#490000
1!
14
0-
16
0;
0:
1)
0*
1%
#500000
0!
04
1-
#510000
1!
14
0-
17
06
1(
0)
#520000
0!
04
1-
#530000
1!
14
0-
16
1)
#540000
0!
04
1-
#550000
1!
14
0-
18
07
06
1;
1:
1'
0(
0)
1*
0%
#560000
0!
04
1-
#570000
1!
14
0-
16
1=
0<
0;
1)
1,
0+
0*
#580000
0!
04
1-
#590000
1!
14
0-
17
06
1>
0=
1<
1;
1(
0)
1$
0,
1+
1*
#600000
0!
04
1-
#610000
1!
14
0-
16
0<
0;
1)
0+
0*
#620000
0!
04
1-
#630000
1!
14
0-
09
08
07
06
0:
0>
0&
0'
0(
0)
0$
1%
#640000
0!
04
1-
#650000
1!
14
0-
16
1)
#660000
0!
04
1-
#670000
1!
14
0-
17
06
1<
1(
0)
1+
#680000
0!
04
1-
#690000
1!
14
0-
16
1)
#700000
0!
04
1-
#710000
1!
14
0-
18
07
06
1=
0<
1'
0(
0)
1,
0+
#720000
0!
04
1-
#730000
1!
14
0-
16
1)
#740000
0!
04
1-
#750000
1!
14
0-
17
06
1>
0=
1<
1;
1:
1(
0)
1$
0,
1+
1*
0%
#760000
0!
04
1-
#770000
1!
14
0-
16
0<
0;
0:
1)
0+
0*
1%
#780000
0!
04
1-
#790000
1!
14
0-
19
08
07
06
1<
1;
1:
0>
1&
0'
0(
0)
1+
1*
0$
0%
#800000
0!
04
1-
#810000
1!
14
0-
16
0;
0:
1)
0*
1%
#820000
0!
04
1-
#830000
1!
14
0-
17
06
1(
0)
#840000
0!
04
1-
#850000
1!
14
0-
16
1)
#860000
0!
04
1-
#870000
1!
14
0-
18
07
06
1;
1:
1'
0(
0)
1*
0%
#880000
0!
04
1-
#890000
1!
14
0-
16
1=
0<
0;
1)
1,
0+
0*
#900000
0!
04
1-
#910000
1!
14
0-
17
06
1>
0=
1<
1;
1(
0)
1$
0,
1+
1*
#920000
0!
04
1-
#930000
1!
14
0-
16
0<
0;
1)
0+
0*
#940000
0!
04
1-
#950000
1!
14
0-
09
08
07
06
0:
0>
0&
0'
0(
0)
0$
1%
#960000
0!
04
1-
#970000
1!
14
0-
16
1)
#980000
0!
04
1-
#990000
1!
14
0-
17
06
1<
1(
0)
1+
