6toSemestre/LabDiseñoDeSistemasDigitales/PracticasCyR/Practica2/simulation/qsim/Practica2.msim.vcd
$comment
	File created using the following command:
		vcd file Practica2.msim.vcd -direction
$end
$date
	Fri Feb 23 11:58:38 2024
$end
$version
	ModelSim Version 10.1d
$end
$timescale
	1ps
$end
$scope module Blink2_vlg_vec_tst $end
$var reg 1 ! clk $end
$var wire 1 " led $end
$var wire 1 # sampler $end
$scope module i1 $end
$var wire 1 $ gnd $end
$var wire 1 % vcc $end
$var wire 1 & unknown $end
$var tri1 1 ' devclrn $end
$var tri1 1 ( devpor $end
$var tri1 1 ) devoe $end
$var wire 1 * led~output_o $end
$var wire 1 + clk~input_o $end
$var wire 1 , clk~inputclkctrl_outclk $end
$var wire 1 - c[0]~26_combout $end
$var wire 1 . LessThan0~1_combout $end
$var wire 1 / c[5]~37 $end
$var wire 1 0 c[6]~38_combout $end
$var wire 1 1 LessThan0~0_combout $end
$var wire 1 2 c[6]~39 $end
$var wire 1 3 c[7]~40_combout $end
$var wire 1 4 c[7]~41 $end
$var wire 1 5 c[8]~42_combout $end
$var wire 1 6 c[8]~43 $end
$var wire 1 7 c[9]~44_combout $end
$var wire 1 8 c[9]~45 $end
$var wire 1 9 c[10]~46_combout $end
$var wire 1 : c[10]~47 $end
$var wire 1 ; c[11]~48_combout $end
$var wire 1 < c[11]~49 $end
$var wire 1 = c[12]~50_combout $end
$var wire 1 > c[12]~51 $end
$var wire 1 ? c[13]~52_combout $end
$var wire 1 @ c[13]~53 $end
$var wire 1 A c[14]~54_combout $end
$var wire 1 B c[14]~55 $end
$var wire 1 C c[15]~56_combout $end
$var wire 1 D c[15]~57 $end
$var wire 1 E c[16]~58_combout $end
$var wire 1 F c[16]~59 $end
$var wire 1 G c[17]~60_combout $end
$var wire 1 H c[17]~61 $end
$var wire 1 I c[18]~62_combout $end
$var wire 1 J c[18]~63 $end
$var wire 1 K c[19]~64_combout $end
$var wire 1 L c[19]~65 $end
$var wire 1 M c[20]~66_combout $end
$var wire 1 N c[20]~67 $end
$var wire 1 O c[21]~68_combout $end
$var wire 1 P c[21]~69 $end
$var wire 1 Q c[22]~70_combout $end
$var wire 1 R c[22]~71 $end
$var wire 1 S c[23]~72_combout $end
$var wire 1 T c[23]~73 $end
$var wire 1 U c[24]~74_combout $end
$var wire 1 V c[24]~75 $end
$var wire 1 W c[25]~76_combout $end
$var wire 1 X LessThan1~2_combout $end
$var wire 1 Y LessThan1~3_combout $end
$var wire 1 Z LessThan1~4_combout $end
$var wire 1 [ LessThan1~5_combout $end
$var wire 1 \ LessThan1~6_combout $end
$var wire 1 ] LessThan1~7_combout $end
$var wire 1 ^ LessThan0~2_combout $end
$var wire 1 _ c[0]~27 $end
$var wire 1 ` c[1]~28_combout $end
$var wire 1 a c[1]~29 $end
$var wire 1 b c[2]~30_combout $end
$var wire 1 c c[2]~31 $end
$var wire 1 d c[3]~32_combout $end
$var wire 1 e c[3]~33 $end
$var wire 1 f c[4]~34_combout $end
$var wire 1 g c[4]~35 $end
$var wire 1 h c[5]~36_combout $end
$var wire 1 i LessThan1~1_combout $end
$var wire 1 j LessThan1~0_combout $end
$var wire 1 k LessThan1~8_combout $end
$var wire 1 l c [25] $end
$var wire 1 m c [24] $end
$var wire 1 n c [23] $end
$var wire 1 o c [22] $end
$var wire 1 p c [21] $end
$var wire 1 q c [20] $end
$var wire 1 r c [19] $end
$var wire 1 s c [18] $end
$var wire 1 t c [17] $end
$var wire 1 u c [16] $end
$var wire 1 v c [15] $end
$var wire 1 w c [14] $end
$var wire 1 x c [13] $end
$var wire 1 y c [12] $end
$var wire 1 z c [11] $end
$var wire 1 { c [10] $end
$var wire 1 | c [9] $end
$var wire 1 } c [8] $end
$var wire 1 ~ c [7] $end
$var wire 1 !! c [6] $end
$var wire 1 "! c [5] $end
$var wire 1 #! c [4] $end
$var wire 1 $! c [3] $end
$var wire 1 %! c [2] $end
$var wire 1 &! c [1] $end
$var wire 1 '! c [0] $end
$upscope $end
$upscope $end
$enddefinitions $end
#0
$dumpvars
0!
1"
x#
0$
1%
x&
1'
1(
1)
1*
0+
0,
1-
0.
1/
00
01
02
03
14
05
06
07
18
09
0:
0;
1<
0=
0>
0?
1@
0A
0B
0C
1D
0E
0F
0G
1H
0I
0J
0K
1L
0M
0N
0O
1P
0Q
0R
0S
1T
0U
0V
0W
1X
1Y
1Z
1[
1\
1]
0^
0_
0`
1a
0b
0c
0d
1e
0f
0g
0h
0i
0j
0k
0'!
0&!
0%!
0$!
0#!
0"!
0!!
0~
0}
0|
0{
0z
0y
0x
0w
0v
0u
0t
0s
0r
0q
0p
0o
0n
0m
0l
$end
#1000
1!
1+
1,
0#
1'!
1_
0-
1`
#2000
0!
0+
0,
1#
#3000
1!
1+
1,
0#
1&!
0'!
0a
0`
0_
1-
1b
1a
1`
0b
#4000
0!
0+
0,
1#
#5000
1!
1+
1,
0#
1'!
1j
1_
0-
0a
0`
1b
#6000
0!
0+
0,
1#
#7000
1!
1+
1,
0#
1%!
0&!
0'!
1c
0b
1a
1`
0_
1-
1d
0c
1b
0`
0d
#8000
0!
0+
0,
1#
#9000
1!
1+
1,
0#
1'!
1.
1_
0-
1`
#10000
0!
0+
0,
1#
#11000
1!
1+
1,
0#
1&!
0'!
0a
0`
0_
1-
1c
0b
1a
1`
1d
0c
1b
0d
#12000
0!
0+
0,
1#
#13000
1!
1+
1,
0#
1'!
1_
0-
0a
0`
1c
0b
1d
#14000
0!
0+
0,
1#
#15000
1!
1+
1,
0#
1$!
0%!
0&!
0'!
0e
0d
0c
1b
1a
1`
0_
1-
1f
1e
1d
0b
0`
0f
#16000
0!
0+
0,
1#
#17000
1!
1+
1,
0#
1'!
1_
0-
1`
#18000
0!
0+
0,
1#
#19000
1!
1+
1,
0#
1&!
0'!
0a
0`
0_
1-
1b
1a
1`
0b
#20000
0!
0+
0,
1#
#21000
1!
1+
1,
0#
1'!
1_
0-
0a
0`
1b
#22000
0!
0+
0,
1#
#23000
1!
1+
1,
0#
1%!
0&!
0'!
1c
0b
1a
1`
0_
1-
0e
0d
0c
1b
0`
1f
1e
1d
0f
#24000
0!
0+
0,
1#
#25000
1!
1+
1,
0#
1'!
1_
0-
1`
#26000
0!
0+
0,
1#
#27000
1!
1+
1,
0#
1&!
0'!
0a
0`
0_
1-
1c
0b
1a
1`
0e
0d
0c
1b
1f
1e
1d
0f
#28000
0!
0+
0,
1#
#29000
1!
1+
1,
0#
1'!
1_
0-
0a
0`
1c
0b
0e
0d
1f
#30000
0!
0+
0,
1#
#31000
1!
1+
1,
0#
1#!
0$!
0%!
0&!
0'!
1g
0f
0j
1e
1d
0.
0c
1b
1a
1`
0_
1-
1h
0g
1f
0d
0b
0`
0h
#32000
0!
0+
0,
1#
#33000
1!
1+
1,
0#
1'!
1_
0-
1`
#34000
0!
0+
0,
1#
#35000
1!
1+
1,
0#
1&!
0'!
0a
0`
0_
1-
1b
1a
1`
0b
#36000
0!
0+
0,
1#
#37000
1!
1+
1,
0#
1'!
1j
1_
0-
0a
0`
1b
#38000
0!
0+
0,
1#
#39000
1!
1+
1,
0#
1%!
0&!
0'!
1c
0b
1a
1`
0_
1-
1d
0c
1b
0`
0d
#40000
0!
0+
0,
1#
#41000
1!
1+
1,
0#
1'!
1.
1_
0-
1`
#42000
0!
0+
0,
1#
#43000
1!
1+
1,
0#
1&!
0'!
0a
0`
0_
1-
1c
0b
1a
1`
1d
0c
1b
0d
#44000
0!
0+
0,
1#
#45000
1!
1+
1,
0#
1'!
1_
0-
0a
0`
1c
0b
1d
#46000
0!
0+
0,
1#
#47000
1!
1+
1,
0#
1$!
0%!
0&!
0'!
0e
0d
0c
1b
1a
1`
0_
1-
1g
0f
1e
1d
0b
0`
1h
0g
1f
0h
#48000
0!
0+
0,
1#
#49000
1!
1+
1,
0#
1'!
1_
0-
1`
#50000
0!
0+
0,
1#
#51000
1!
1+
1,
0#
1&!
0'!
0a
0`
0_
1-
1b
1a
1`
0b
#52000
0!
0+
0,
1#
#53000
1!
1+
1,
0#
1'!
1_
0-
0a
0`
1b
#54000
0!
0+
0,
1#
#55000
1!
1+
1,
0#
1%!
0&!
0'!
1c
0b
1a
1`
0_
1-
0e
0d
0c
1b
0`
1g
0f
1e
1d
1h
0g
1f
0h
#56000
0!
0+
0,
1#
#57000
1!
1+
1,
0#
1'!
1_
0-
1`
#58000
0!
0+
0,
1#
#59000
1!
1+
1,
0#
1&!
0'!
0a
0`
0_
1-
1c
0b
1a
1`
0e
0d
0c
1b
1g
0f
1e
1d
1h
0g
1f
0h
#60000
0!
0+
0,
1#
#61000
1!
1+
1,
0#
1'!
1_
0-
0a
0`
1c
0b
0e
0d
1g
0f
1h
#62000
0!
0+
0,
1#
#63000
1!
1+
1,
0#
1"!
0#!
0$!
0%!
0&!
0'!
0/
0h
0g
1f
0j
1e
1d
0.
0c
1b
1a
1`
0_
1-
10
1/
1h
0f
0d
0b
0`
00
#64000
0!
0+
0,
1#
#65000
1!
1+
1,
0#
1'!
1_
0-
1`
#66000
0!
0+
0,
1#
#67000
1!
1+
1,
0#
1&!
0'!
0a
0`
0_
1-
1b
1a
1`
0b
#68000
0!
0+
0,
1#
#69000
1!
1+
1,
0#
1'!
1j
1_
0-
0a
0`
1b
#70000
0!
0+
0,
1#
#71000
1!
1+
1,
0#
1%!
0&!
0'!
1c
0b
1a
1`
0_
1-
1d
0c
1b
0`
0d
#72000
0!
0+
0,
1#
#73000
1!
1+
1,
0#
1'!
1.
1_
0-
1`
#74000
0!
0+
0,
1#
#75000
1!
1+
1,
0#
1&!
0'!
0a
0`
0_
1-
1c
0b
1a
1`
1d
0c
1b
0d
#76000
0!
0+
0,
1#
#77000
1!
1+
1,
0#
1'!
1_
0-
0a
0`
1c
0b
1d
#78000
0!
0+
0,
1#
#79000
1!
1+
1,
0#
1$!
0%!
0&!
0'!
0e
0d
0c
1b
1a
1`
0_
1-
1f
1e
1d
0b
0`
0f
#80000
0!
0+
0,
1#
#81000
1!
1+
1,
0#
1'!
1_
0-
1`
#82000
0!
0+
0,
1#
#83000
1!
1+
1,
0#
1&!
0'!
0a
0`
0_
1-
1b
1a
1`
0b
#84000
0!
0+
0,
1#
#85000
1!
1+
1,
0#
1'!
1_
0-
0a
0`
1b
#86000
0!
0+
0,
1#
#87000
1!
1+
1,
0#
1%!
0&!
0'!
1c
0b
1a
1`
0_
1-
0e
0d
0c
1b
0`
1f
1e
1d
0f
#88000
0!
0+
0,
1#
#89000
1!
1+
1,
0#
1'!
1_
0-
1`
#90000
0!
0+
0,
1#
#91000
1!
1+
1,
0#
1&!
0'!
0a
0`
0_
1-
1c
0b
1a
1`
0e
0d
0c
1b
1f
1e
1d
0f
#92000
0!
0+
0,
1#
#93000
1!
1+
1,
0#
1'!
1_
0-
0a
0`
1c
0b
0e
0d
1f
#94000
0!
0+
0,
1#
#95000
1!
1+
1,
0#
1#!
0$!
0%!
0&!
0'!
1i
1g
0f
0j
1e
1d
0.
0c
1b
1a
1`
0_
1-
0/
0h
0g
1f
0d
0b
0`
10
1/
1h
00
#96000
0!
0+
0,
1#
#97000
1!
1+
1,
0#
1'!
1_
0-
1`
#98000
0!
0+
0,
1#
#99000
1!
1+
1,
0#
1&!
0'!
0a
0`
0_
1-
1b
1a
1`
0b
#100000
0!
0+
0,
1#
#101000
1!
1+
1,
0#
1'!
1j
1_
0-
1k
0a
0`
1b
0*
0"
#102000
0!
0+
0,
1#
#103000
1!
1+
1,
0#
1%!
0&!
0'!
1c
0b
1a
1`
0_
1-
1d
0c
1b
0`
0d
#104000
0!
0+
0,
1#
#105000
1!
1+
1,
0#
1'!
1.
1_
0-
1`
#106000
0!
0+
0,
1#
#107000
1!
1+
1,
0#
1&!
0'!
0a
0`
0_
1-
1c
0b
1a
1`
1d
0c
1b
0d
#108000
0!
0+
0,
1#
#109000
1!
1+
1,
0#
1'!
1_
0-
0a
0`
1c
0b
1d
#110000
0!
0+
0,
1#
#111000
1!
1+
1,
0#
1$!
0%!
0&!
0'!
0e
0d
0c
1b
1a
1`
0_
1-
1g
0f
1e
1d
0b
0`
0/
0h
0g
1f
10
1/
1h
00
#112000
0!
0+
0,
1#
#113000
1!
1+
1,
0#
1'!
1_
0-
1`
#114000
0!
0+
0,
1#
#115000
1!
1+
1,
0#
1&!
0'!
0a
0`
0_
1-
1b
1a
1`
0b
#116000
0!
0+
0,
1#
#117000
1!
1+
1,
0#
1'!
1_
0-
0a
0`
1b
#118000
0!
0+
0,
1#
#119000
1!
1+
1,
0#
1%!
0&!
0'!
1c
0b
1a
1`
0_
1-
0e
0d
0c
1b
0`
1g
0f
1e
1d
0/
0h
0g
1f
10
1/
1h
00
#120000
0!
0+
0,
1#
#121000
1!
1+
1,
0#
1'!
1_
0-
1`
#122000
0!
0+
0,
1#
#123000
1!
1+
1,
0#
1&!
0'!
0a
0`
0_
1-
1c
0b
1a
1`
0e
0d
0c
1b
1g
0f
1e
1d
0/
0h
0g
1f
10
1/
1h
00
#124000
0!
0+
0,
1#
#125000
1!
1+
1,
0#
1'!
1_
0-
0a
0`
1c
0b
0e
0d
1g
0f
0/
0h
10
#126000
0!
0+
0,
1#
#127000
1!
1+
1,
0#
0"!
0#!
0$!
0%!
0&!
0'!
1!!
0i
1/
1h
0g
1f
0j
1e
1d
0.
0c
1b
1a
1`
0_
1-
12
00
02
10
0h
0f
0d
0b
0`
13
03
#128000
0!
0+
0,
1#
#129000
1!
1+
1,
0#
1'!
1_
0-
1`
#130000
0!
0+
0,
1#
#131000
1!
1+
1,
0#
1&!
0'!
0a
0`
0_
1-
1b
1a
1`
0b
#132000
0!
0+
0,
1#
#133000
1!
1+
1,
0#
1'!
1j
1_
0-
0a
0`
1b
#134000
0!
0+
0,
1#
#135000
1!
1+
1,
0#
1%!
0&!
0'!
1c
0b
1a
1`
0_
1-
1d
0c
1b
0`
0d
#136000
0!
0+
0,
1#
#137000
1!
1+
1,
0#
1'!
1.
1_
0-
1`
#138000
0!
0+
0,
1#
#139000
1!
1+
1,
0#
1&!
0'!
0a
0`
0_
1-
1c
0b
1a
1`
1d
0c
1b
0d
#140000
0!
0+
0,
1#
#141000
1!
1+
1,
0#
1'!
1_
0-
0a
0`
1c
0b
1d
#142000
0!
0+
0,
1#
#143000
1!
1+
1,
0#
1$!
0%!
0&!
0'!
0e
0d
0c
1b
1a
1`
0_
1-
1f
1e
1d
0b
0`
0f
#144000
0!
0+
0,
1#
#145000
1!
1+
1,
0#
1'!
1_
0-
1`
#146000
0!
0+
0,
1#
#147000
1!
1+
1,
0#
1&!
0'!
0a
0`
0_
1-
1b
1a
1`
0b
#148000
0!
0+
0,
1#
#149000
1!
1+
1,
0#
1'!
1_
0-
0a
0`
1b
#150000
0!
0+
0,
1#
#151000
1!
1+
1,
0#
1%!
0&!
0'!
1c
0b
1a
1`
0_
1-
0e
0d
0c
1b
0`
1f
1e
1d
0f
#152000
0!
0+
0,
1#
#153000
1!
1+
1,
0#
1'!
1_
0-
1`
#154000
0!
0+
0,
1#
#155000
1!
1+
1,
0#
1&!
0'!
0a
0`
0_
1-
1c
0b
1a
1`
0e
0d
0c
1b
1f
1e
1d
0f
#156000
0!
0+
0,
1#
#157000
1!
1+
1,
0#
1'!
1_
0-
0a
0`
1c
0b
0e
0d
1f
#158000
0!
0+
0,
1#
#159000
1!
1+
1,
0#
1#!
0$!
0%!
0&!
0'!
1g
0f
0j
1e
1d
0.
0c
1b
1a
1`
0_
1-
1h
0g
1f
0d
0b
0`
0h
#160000
0!
0+
0,
1#
#161000
1!
1+
1,
0#
1'!
1_
0-
1`
#162000
0!
0+
0,
1#
#163000
1!
1+
1,
0#
1&!
0'!
0a
0`
0_
1-
1b
1a
1`
0b
#164000
0!
0+
0,
1#
#165000
1!
1+
1,
0#
1'!
1j
1_
0-
0a
0`
1b
#166000
0!
0+
0,
1#
#167000
1!
1+
1,
0#
1%!
0&!
0'!
1c
0b
1a
1`
0_
1-
1d
0c
1b
0`
0d
#168000
0!
0+
0,
1#
#169000
1!
1+
1,
0#
1'!
1.
1_
0-
1`
#170000
0!
0+
0,
1#
#171000
1!
1+
1,
0#
1&!
0'!
0a
0`
0_
1-
1c
0b
1a
1`
1d
0c
1b
0d
#172000
0!
0+
0,
1#
#173000
1!
1+
1,
0#
1'!
1_
0-
0a
0`
1c
0b
1d
#174000
0!
0+
0,
1#
#175000
1!
1+
1,
0#
1$!
0%!
0&!
0'!
0e
0d
0c
1b
1a
1`
0_
1-
1g
0f
1e
1d
0b
0`
1h
0g
1f
0h
#176000
0!
0+
0,
1#
#177000
1!
1+
1,
0#
1'!
1_
0-
1`
#178000
0!
0+
0,
1#
#179000
1!
1+
1,
0#
1&!
0'!
0a
0`
0_
1-
1b
1a
1`
0b
#180000
0!
0+
0,
1#
#181000
1!
1+
1,
0#
1'!
1_
0-
0a
0`
1b
#182000
0!
0+
0,
1#
#183000
1!
1+
1,
0#
1%!
0&!
0'!
1c
0b
1a
1`
0_
1-
0e
0d
0c
1b
0`
1g
0f
1e
1d
1h
0g
1f
0h
#184000
0!
0+
0,
1#
#185000
1!
1+
1,
0#
1'!
1_
0-
1`
#186000
0!
0+
0,
1#
#187000
1!
1+
1,
0#
1&!
0'!
0a
0`
0_
1-
1c
0b
1a
1`
0e
0d
0c
1b
1g
0f
1e
1d
1h
0g
1f
0h
#188000
0!
0+
0,
1#
#189000
1!
1+
1,
0#
1'!
1_
0-
0a
0`
1c
0b
0e
0d
1g
0f
1h
#190000
0!
0+
0,
1#
#191000
1!
1+
1,
0#
1"!
0#!
0$!
0%!
0&!
0'!
11
0/
0h
0g
1f
0j
1e
1d
0.
0c
1b
1a
1`
0_
1-
12
00
1/
1h
0f
0d
0b
0`
13
02
10
03
#192000
0!
0+
0,
1#
#193000
1!
1+
1,
0#
1'!
1_
0-
1`
#194000
0!
0+
0,
1#
#195000
1!
1+
1,
0#
1&!
0'!
0a
0`
0_
1-
1b
1a
1`
0b
#196000
0!
0+
0,
1#
#197000
1!
1+
1,
0#
1'!
1j
1_
0-
0a
0`
1b
#198000
0!
0+
0,
1#
#199000
1!
1+
1,
0#
1%!
0&!
0'!
1c
0b
1a
1`
0_
1-
1d
0c
1b
0`
0d
#200000
0!
0+
0,
1#
#201000
1!
1+
1,
0#
1'!
1.
1_
0-
1^
1`
#202000
0!
0+
0,
1#
#203000
1!
1+
1,
0#
0"!
0%!
0'!
0!!
01
0h
0j
0b
0.
0_
1-
0k
00
0^
0`
1*
1"
#204000
0!
0+
0,
1#
#205000
1!
1+
1,
0#
1'!
1_
0-
1`
#206000
0!
0+
0,
1#
#207000
1!
1+
1,
0#
1&!
0'!
0a
0`
0_
1-
1b
1a
1`
0b
#208000
0!
0+
0,
1#
#209000
1!
1+
1,
0#
1'!
1j
1_
0-
0a
0`
1b
#210000
0!
0+
0,
1#
#211000
1!
1+
1,
0#
1%!
0&!
0'!
1c
0b
1a
1`
0_
1-
1d
0c
1b
0`
0d
#212000
0!
0+
0,
1#
#213000
1!
1+
1,
0#
1'!
1.
1_
0-
1`
#214000
0!
0+
0,
1#
#215000
1!
1+
1,
0#
1&!
0'!
0a
0`
0_
1-
1c
0b
1a
1`
1d
0c
1b
0d
#216000
0!
0+
0,
1#
#217000
1!
1+
1,
0#
1'!
1_
0-
0a
0`
1c
0b
1d
#218000
0!
0+
0,
1#
#219000
1!
1+
1,
0#
1$!
0%!
0&!
0'!
0e
0d
0c
1b
1a
1`
0_
1-
1f
1e
1d
0b
0`
0f
#220000
0!
0+
0,
1#
#221000
1!
1+
1,
0#
1'!
1_
0-
1`
#222000
0!
0+
0,
1#
#223000
1!
1+
1,
0#
1&!
0'!
0a
0`
0_
1-
1b
1a
1`
0b
#224000
0!
0+
0,
1#
#225000
1!
1+
1,
0#
1'!
1_
0-
0a
0`
1b
#226000
0!
0+
0,
1#
#227000
1!
1+
1,
0#
1%!
0&!
0'!
1c
0b
1a
1`
0_
1-
0e
0d
0c
1b
0`
1f
1e
1d
0f
#228000
0!
0+
0,
1#
#229000
1!
1+
1,
0#
1'!
1_
0-
1`
#230000
0!
0+
0,
1#
#231000
1!
1+
1,
0#
1&!
0'!
0a
0`
0_
1-
1c
0b
1a
1`
0e
0d
0c
1b
1f
1e
1d
0f
#232000
0!
0+
0,
1#
#233000
1!
1+
1,
0#
1'!
1_
0-
0a
0`
1c
0b
0e
0d
1f
#234000
0!
0+
0,
1#
#235000
1!
1+
1,
0#
1#!
0$!
0%!
0&!
0'!
1g
0f
0j
1e
1d
0.
0c
1b
1a
1`
0_
1-
1h
0g
1f
0d
0b
0`
0h
#236000
0!
0+
0,
1#
#237000
1!
1+
1,
0#
1'!
1_
0-
1`
#238000
0!
0+
0,
1#
#239000
1!
1+
1,
0#
1&!
0'!
0a
0`
0_
1-
1b
1a
1`
0b
#240000
0!
0+
0,
1#
#241000
1!
1+
1,
0#
1'!
1j
1_
0-
0a
0`
1b
#242000
0!
0+
0,
1#
#243000
1!
1+
1,
0#
1%!
0&!
0'!
1c
0b
1a
1`
0_
1-
1d
0c
1b
0`
0d
#244000
0!
0+
0,
1#
#245000
1!
1+
1,
0#
1'!
1.
1_
0-
1`
#246000
0!
0+
0,
1#
#247000
1!
1+
1,
0#
1&!
0'!
0a
0`
0_
1-
1c
0b
1a
1`
1d
0c
1b
0d
#248000
0!
0+
0,
1#
#249000
1!
1+
1,
0#
1'!
1_
0-
0a
0`
1c
0b
1d
#250000
0!
0+
0,
1#
#251000
1!
1+
1,
0#
1$!
0%!
0&!
0'!
0e
0d
0c
1b
1a
1`
0_
1-
1g
0f
1e
1d
0b
0`
1h
0g
1f
0h
#252000
0!
0+
0,
1#
#253000
1!
1+
1,
0#
1'!
1_
0-
1`
#254000
0!
0+
0,
1#
#255000
1!
1+
1,
0#
1&!
0'!
0a
0`
0_
1-
1b
1a
1`
0b
#256000
0!
0+
0,
1#
#257000
1!
1+
1,
0#
1'!
1_
0-
0a
0`
1b
#258000
0!
0+
0,
1#
#259000
1!
1+
1,
0#
1%!
0&!
0'!
1c
0b
1a
1`
0_
1-
0e
0d
0c
1b
0`
1g
0f
1e
1d
1h
0g
1f
0h
#260000
0!
0+
0,
1#
#261000
1!
1+
1,
0#
1'!
1_
0-
1`
#262000
0!
0+
0,
1#
#263000
1!
1+
1,
0#
1&!
0'!
0a
0`
0_
1-
1c
0b
1a
1`
0e
0d
0c
1b
1g
0f
1e
1d
1h
0g
1f
0h
#264000
0!
0+
0,
1#
#265000
1!
1+
1,
0#
1'!
1_
0-
0a
0`
1c
0b
0e
0d
1g
0f
1h
#266000
0!
0+
0,
1#
#267000
1!
1+
1,
0#
1"!
0#!
0$!
0%!
0&!
0'!
0/
0h
0g
1f
0j
1e
1d
0.
0c
1b
1a
1`
0_
1-
10
1/
1h
0f
0d
0b
0`
00
#268000
0!
0+
0,
1#
#269000
1!
1+
1,
0#
1'!
1_
0-
1`
#270000
0!
0+
0,
1#
#271000
1!
1+
1,
0#
1&!
0'!
0a
0`
0_
1-
1b
1a
1`
0b
#272000
0!
0+
0,
1#
#273000
1!
1+
1,
0#
1'!
1j
1_
0-
0a
0`
1b
#274000
0!
0+
0,
1#
#275000
1!
1+
1,
0#
1%!
0&!
0'!
1c
0b
1a
1`
0_
1-
1d
0c
1b
0`
0d
#276000
0!
0+
0,
1#
#277000
1!
1+
1,
0#
1'!
1.
1_
0-
1`
#278000
0!
0+
0,
1#
#279000
1!
1+
1,
0#
1&!
0'!
0a
0`
0_
1-
1c
0b
1a
1`
1d
0c
1b
0d
#280000
0!
0+
0,
1#
#281000
1!
1+
1,
0#
1'!
1_
0-
0a
0`
1c
0b
1d
#282000
0!
0+
0,
1#
#283000
1!
1+
1,
0#
1$!
0%!
0&!
0'!
0e
0d
0c
1b
1a
1`
0_
1-
1f
1e
1d
0b
0`
0f
#284000
0!
0+
0,
1#
#285000
1!
1+
1,
0#
1'!
1_
0-
1`
#286000
0!
0+
0,
1#
#287000
1!
1+
1,
0#
1&!
0'!
0a
0`
0_
1-
1b
1a
1`
0b
#288000
0!
0+
0,
1#
#289000
1!
1+
1,
0#
1'!
1_
0-
0a
0`
1b
#290000
0!
0+
0,
1#
#291000
1!
1+
1,
0#
1%!
0&!
0'!
1c
0b
1a
1`
0_
1-
0e
0d
0c
1b
0`
1f
1e
1d
0f
#292000
0!
0+
0,
1#
#293000
1!
1+
1,
0#
1'!
1_
0-
1`
#294000
0!
0+
0,
1#
#295000
1!
1+
1,
0#
1&!
0'!
0a
0`
0_
1-
1c
0b
1a
1`
0e
0d
0c
1b
1f
1e
1d
0f
#296000
0!
0+
0,
1#
#297000
1!
1+
1,
0#
1'!
1_
0-
0a
0`
1c
0b
0e
0d
1f
#298000
0!
0+
0,
1#
#299000
1!
1+
1,
0#
1#!
0$!
0%!
0&!
0'!
1i
1g
0f
0j
1e
1d
0.
0c
1b
1a
1`
0_
1-
0/
0h
0g
1f
0d
0b
0`
10
1/
1h
00
#300000
0!
0+
0,
1#
#301000
1!
1+
1,
0#
1'!
1_
0-
1`
#302000
0!
0+
0,
1#
#303000
1!
1+
1,
0#
1&!
0'!
0a
0`
0_
1-
1b
1a
1`
0b
#304000
0!
0+
0,
1#
#305000
1!
1+
1,
0#
1'!
1j
1_
0-
1k
0a
0`
1b
0*
0"
#306000
0!
0+
0,
1#
#307000
1!
1+
1,
0#
1%!
0&!
0'!
1c
0b
1a
1`
0_
1-
1d
0c
1b
0`
0d
#308000
0!
0+
0,
1#
#309000
1!
1+
1,
0#
1'!
1.
1_
0-
1`
#310000
0!
0+
0,
1#
#311000
1!
1+
1,
0#
1&!
0'!
0a
0`
0_
1-
1c
0b
1a
1`
1d
0c
1b
0d
#312000
0!
0+
0,
1#
#313000
1!
1+
1,
0#
1'!
1_
0-
0a
0`
1c
0b
1d
#314000
0!
0+
0,
1#
#315000
1!
1+
1,
0#
1$!
0%!
0&!
0'!
0e
0d
0c
1b
1a
1`
0_
1-
1g
0f
1e
1d
0b
0`
0/
0h
0g
1f
10
1/
1h
00
#316000
0!
0+
0,
1#
#317000
1!
1+
1,
0#
1'!
1_
0-
1`
#318000
0!
0+
0,
1#
#319000
1!
1+
1,
0#
1&!
0'!
0a
0`
0_
1-
1b
1a
1`
0b
#320000
0!
0+
0,
1#
#321000
1!
1+
1,
0#
1'!
1_
0-
0a
0`
1b
#322000
0!
0+
0,
1#
#323000
1!
1+
1,
0#
1%!
0&!
0'!
1c
0b
1a
1`
0_
1-
0e
0d
0c
1b
0`
1g
0f
1e
1d
0/
0h
0g
1f
10
1/
1h
00
#324000
0!
0+
0,
1#
#325000
1!
1+
1,
0#
1'!
1_
0-
1`
#326000
0!
0+
0,
1#
#327000
1!
1+
1,
0#
1&!
0'!
0a
0`
0_
1-
1c
0b
1a
1`
0e
0d
0c
1b
1g
0f
1e
1d
0/
0h
0g
1f
10
1/
1h
00
#328000
0!
0+
0,
1#
#329000
1!
1+
1,
0#
1'!
1_
0-
0a
0`
1c
0b
0e
0d
1g
0f
0/
0h
10
#330000
0!
0+
0,
1#
#331000
1!
1+
1,
0#
0"!
0#!
0$!
0%!
0&!
0'!
1!!
0i
1/
1h
0g
1f
0j
1e
1d
0.
0c
1b
1a
1`
0_
1-
12
00
02
10
0h
0f
0d
0b
0`
13
03
#332000
0!
0+
0,
1#
#333000
1!
1+
1,
0#
1'!
1_
0-
1`
#334000
0!
0+
0,
1#
#335000
1!
1+
1,
0#
1&!
0'!
0a
0`
0_
1-
1b
1a
1`
0b
#336000
0!
0+
0,
1#
#337000
1!
1+
1,
0#
1'!
1j
1_
0-
0a
0`
1b
#338000
0!
0+
0,
1#
#339000
1!
1+
1,
0#
1%!
0&!
0'!
1c
0b
1a
1`
0_
1-
1d
0c
1b
0`
0d
#340000
0!
0+
0,
1#
#341000
1!
1+
1,
0#
1'!
1.
1_
0-
1`
#342000
0!
0+
0,
1#
#343000
1!
1+
1,
0#
1&!
0'!
0a
0`
0_
1-
1c
0b
1a
1`
1d
0c
1b
0d
#344000
0!
0+
0,
1#
#345000
1!
1+
1,
0#
1'!
1_
0-
0a
0`
1c
0b
1d
#346000
0!
0+
0,
1#
#347000
1!
1+
1,
0#
1$!
0%!
0&!
0'!
0e
0d
0c
1b
1a
1`
0_
1-
1f
1e
1d
0b
0`
0f
#348000
0!
0+
0,
1#
#349000
1!
1+
1,
0#
1'!
1_
0-
1`
#350000
0!
0+
0,
1#
#351000
1!
1+
1,
0#
1&!
0'!
0a
0`
0_
1-
1b
1a
1`
0b
#352000
0!
0+
0,
1#
#353000
1!
1+
1,
0#
1'!
1_
0-
0a
0`
1b
#354000
0!
0+
0,
1#
#355000
1!
1+
1,
0#
1%!
0&!
0'!
1c
0b
1a
1`
0_
1-
0e
0d
0c
1b
0`
1f
1e
1d
0f
#356000
0!
0+
0,
1#
#357000
1!
1+
1,
0#
1'!
1_
0-
1`
#358000
0!
0+
0,
1#
#359000
1!
1+
1,
0#
1&!
0'!
0a
0`
0_
1-
1c
0b
1a
1`
0e
0d
0c
1b
1f
1e
1d
0f
#360000
0!
0+
0,
1#
#361000
1!
1+
1,
0#
1'!
1_
0-
0a
0`
1c
0b
0e
0d
1f
#362000
0!
0+
0,
1#
#363000
1!
1+
1,
0#
1#!
0$!
0%!
0&!
0'!
1g
0f
0j
1e
1d
0.
0c
1b
1a
1`
0_
1-
1h
0g
1f
0d
0b
0`
0h
#364000
0!
0+
0,
1#
#365000
1!
1+
1,
0#
1'!
1_
0-
1`
#366000
0!
0+
0,
1#
#367000
1!
1+
1,
0#
1&!
0'!
0a
0`
0_
1-
1b
1a
1`
0b
#368000
0!
0+
0,
1#
