6toSemestre/LabDiseñoDeSistemasDigitales/PracticasCyR/Practica2/simulation/qsim/Practica2.msim.vcd
$comment
	File created using the following command:
		vcd file Practica2.msim.vcd -direction
$end
$date
	Tue Feb 27 19:29:31 2024
$end
$version
	ModelSim Version 10.1d
$end
$timescale
	1ps
$end
$scope module Blink3_vlg_vec_tst $end
$var reg 1 ! clk $end
$var wire 1 " led $end
$var wire 1 # led2 $end
$var wire 1 $ led3 $end
$var wire 1 % sampler $end
$scope module i1 $end
$var wire 1 & gnd $end
$var wire 1 ' vcc $end
$var wire 1 ( unknown $end
$var tri1 1 ) devclrn $end
$var tri1 1 * devpor $end
$var tri1 1 + devoe $end
$var wire 1 , led~output_o $end
$var wire 1 - led2~output_o $end
$var wire 1 . led3~output_o $end
$var wire 1 / clk~input_o $end
$var wire 1 0 clk~inputclkctrl_outclk $end
$var wire 1 1 c3[0]~26_combout $end
$var wire 1 2 c3[1]~29 $end
$var wire 1 3 c3[2]~30_combout $end
$var wire 1 4 c3[2]~31 $end
$var wire 1 5 c3[3]~32_combout $end
$var wire 1 6 c3[3]~33 $end
$var wire 1 7 c3[4]~34_combout $end
$var wire 1 8 c3[4]~35 $end
$var wire 1 9 c3[5]~36_combout $end
$var wire 1 : LessThan2~0_combout $end
$var wire 1 ; c3[5]~37 $end
$var wire 1 < c3[6]~38_combout $end
$var wire 1 = c3[6]~39 $end
$var wire 1 > c3[7]~40_combout $end
$var wire 1 ? c3[7]~41 $end
$var wire 1 @ c3[8]~42_combout $end
$var wire 1 A c3[8]~43 $end
$var wire 1 B c3[9]~44_combout $end
$var wire 1 C c3[9]~45 $end
$var wire 1 D c3[10]~46_combout $end
$var wire 1 E c3[10]~47 $end
$var wire 1 F c3[11]~48_combout $end
$var wire 1 G c3[11]~49 $end
$var wire 1 H c3[12]~50_combout $end
$var wire 1 I c3[12]~51 $end
$var wire 1 J c3[13]~52_combout $end
$var wire 1 K c3[13]~53 $end
$var wire 1 L c3[14]~54_combout $end
$var wire 1 M c3[14]~55 $end
$var wire 1 N c3[15]~56_combout $end
$var wire 1 O c3[15]~57 $end
$var wire 1 P c3[16]~58_combout $end
$var wire 1 Q c3[16]~59 $end
$var wire 1 R c3[17]~60_combout $end
$var wire 1 S c3[17]~61 $end
$var wire 1 T c3[18]~62_combout $end
$var wire 1 U c3[18]~63 $end
$var wire 1 V c3[19]~64_combout $end
$var wire 1 W c3[19]~65 $end
$var wire 1 X c3[20]~66_combout $end
$var wire 1 Y c3[20]~67 $end
$var wire 1 Z c3[21]~68_combout $end
$var wire 1 [ c3[21]~69 $end
$var wire 1 \ c3[22]~70_combout $end
$var wire 1 ] c3[22]~71 $end
$var wire 1 ^ c3[23]~72_combout $end
$var wire 1 _ c3[23]~73 $end
$var wire 1 ` c3[24]~74_combout $end
$var wire 1 a c3[24]~75 $end
$var wire 1 b c3[25]~76_combout $end
$var wire 1 c LessThan3~1_combout $end
$var wire 1 d LessThan3~6_combout $end
$var wire 1 e LessThan3~2_combout $end
$var wire 1 f LessThan3~3_combout $end
$var wire 1 g LessThan3~4_combout $end
$var wire 1 h LessThan3~5_combout $end
$var wire 1 i LessThan3~7_combout $end
$var wire 1 j LessThan2~1_combout $end
$var wire 1 k c3[0]~27 $end
$var wire 1 l c3[1]~28_combout $end
$var wire 1 m LessThan3~0_combout $end
$var wire 1 n LessThan3~8_combout $end
$var wire 1 o c2[0]~27_combout $end
$var wire 1 p c2[4]~36 $end
$var wire 1 q c2[5]~37_combout $end
$var wire 1 r c2[5]~38 $end
$var wire 1 s c2[6]~39_combout $end
$var wire 1 t c2[6]~40 $end
$var wire 1 u c2[7]~41_combout $end
$var wire 1 v LessThan1~0_combout $end
$var wire 1 w LessThan1~1_combout $end
$var wire 1 x c2[7]~42 $end
$var wire 1 y c2[8]~43_combout $end
$var wire 1 z c2[8]~44 $end
$var wire 1 { c2[9]~45_combout $end
$var wire 1 | c2[9]~46 $end
$var wire 1 } c2[10]~47_combout $end
$var wire 1 ~ c2[10]~48 $end
$var wire 1 !! c2[11]~49_combout $end
$var wire 1 "! c2[11]~50 $end
$var wire 1 #! c2[12]~51_combout $end
$var wire 1 $! c2[12]~52 $end
$var wire 1 %! c2[13]~53_combout $end
$var wire 1 &! c2[13]~54 $end
$var wire 1 '! c2[14]~55_combout $end
$var wire 1 (! c2[14]~56 $end
$var wire 1 )! c2[15]~57_combout $end
$var wire 1 *! c2[15]~58 $end
$var wire 1 +! c2[16]~59_combout $end
$var wire 1 ,! c2[16]~60 $end
$var wire 1 -! c2[17]~61_combout $end
$var wire 1 .! c2[17]~62 $end
$var wire 1 /! c2[18]~63_combout $end
$var wire 1 0! c2[18]~64 $end
$var wire 1 1! c2[19]~65_combout $end
$var wire 1 2! c2[19]~66 $end
$var wire 1 3! c2[20]~67_combout $end
$var wire 1 4! c2[20]~68 $end
$var wire 1 5! c2[21]~69_combout $end
$var wire 1 6! c2[21]~70 $end
$var wire 1 7! c2[22]~71_combout $end
$var wire 1 8! c2[22]~72 $end
$var wire 1 9! c2[23]~73_combout $end
$var wire 1 :! c2[23]~74 $end
$var wire 1 ;! c2[24]~75_combout $end
$var wire 1 <! c2[24]~76 $end
$var wire 1 =! c2[25]~77_combout $end
$var wire 1 >! c2[25]~78 $end
$var wire 1 ?! c2[26]~79_combout $end
$var wire 1 @! LessThan4~3_combout $end
$var wire 1 A! LessThan4~4_combout $end
$var wire 1 B! LessThan4~2_combout $end
$var wire 1 C! LessThan4~5_combout $end
$var wire 1 D! LessThan4~6_combout $end
$var wire 1 E! LessThan4~7_combout $end
$var wire 1 F! LessThan1~2_combout $end
$var wire 1 G! c2[0]~28 $end
$var wire 1 H! c2[1]~29_combout $end
$var wire 1 I! c2[1]~30 $end
$var wire 1 J! c2[2]~31_combout $end
$var wire 1 K! c2[2]~32 $end
$var wire 1 L! c2[3]~33_combout $end
$var wire 1 M! c2[3]~34 $end
$var wire 1 N! c2[4]~35_combout $end
$var wire 1 O! LessThan4~0_combout $end
$var wire 1 P! LessThan4~1_combout $end
$var wire 1 Q! LessThan4~8_combout $end
$var wire 1 R! c[0]~30_combout $end
$var wire 1 S! LessThan0~0_combout $end
$var wire 1 T! LessThan5~1_combout $end
$var wire 1 U! LessThan0~1_combout $end
$var wire 1 V! LessThan0~2_combout $end
$var wire 1 W! c[0]~31 $end
$var wire 1 X! c[1]~32_combout $end
$var wire 1 Y! c[1]~33 $end
$var wire 1 Z! c[2]~34_combout $end
$var wire 1 [! c[2]~35 $end
$var wire 1 \! c[3]~36_combout $end
$var wire 1 ]! c[3]~37 $end
$var wire 1 ^! c[4]~38_combout $end
$var wire 1 _! c[4]~39 $end
$var wire 1 `! c[5]~40_combout $end
$var wire 1 a! c[5]~41 $end
$var wire 1 b! c[6]~42_combout $end
$var wire 1 c! c[6]~43 $end
$var wire 1 d! c[7]~44_combout $end
$var wire 1 e! c[7]~45 $end
$var wire 1 f! c[8]~46_combout $end
$var wire 1 g! c[8]~47 $end
$var wire 1 h! c[9]~48_combout $end
$var wire 1 i! c[9]~49 $end
$var wire 1 j! c[10]~50_combout $end
$var wire 1 k! c[10]~51 $end
$var wire 1 l! c[11]~52_combout $end
$var wire 1 m! c[11]~53 $end
$var wire 1 n! c[12]~54_combout $end
$var wire 1 o! c[12]~55 $end
$var wire 1 p! c[13]~56_combout $end
$var wire 1 q! c[13]~57 $end
$var wire 1 r! c[14]~58_combout $end
$var wire 1 s! c[14]~59 $end
$var wire 1 t! c[15]~60_combout $end
$var wire 1 u! c[15]~61 $end
$var wire 1 v! c[16]~62_combout $end
$var wire 1 w! c[16]~63 $end
$var wire 1 x! c[17]~64_combout $end
$var wire 1 y! c[17]~65 $end
$var wire 1 z! c[18]~66_combout $end
$var wire 1 {! c[18]~67 $end
$var wire 1 |! c[19]~68_combout $end
$var wire 1 }! c[19]~69 $end
$var wire 1 ~! c[20]~70_combout $end
$var wire 1 !" c[20]~71 $end
$var wire 1 "" c[21]~72_combout $end
$var wire 1 #" c[21]~73 $end
$var wire 1 $" c[22]~74_combout $end
$var wire 1 %" c[22]~75 $end
$var wire 1 &" c[23]~76_combout $end
$var wire 1 '" c[23]~77 $end
$var wire 1 (" c[24]~78_combout $end
$var wire 1 )" c[24]~79 $end
$var wire 1 *" c[25]~80_combout $end
$var wire 1 +" c[25]~81 $end
$var wire 1 ," c[26]~82_combout $end
$var wire 1 -" c[26]~83 $end
$var wire 1 ." c[27]~84_combout $end
$var wire 1 /" c[27]~85 $end
$var wire 1 0" c[28]~86_combout $end
$var wire 1 1" c[28]~87 $end
$var wire 1 2" c[29]~88_combout $end
$var wire 1 3" LessThan5~3_combout $end
$var wire 1 4" LessThan5~8_combout $end
$var wire 1 5" LessThan5~7_combout $end
$var wire 1 6" LessThan5~5_combout $end
$var wire 1 7" LessThan5~4_combout $end
$var wire 1 8" LessThan5~6_combout $end
$var wire 1 9" LessThan5~9_combout $end
$var wire 1 :" LessThan5~0_combout $end
$var wire 1 ;" LessThan5~2_combout $end
$var wire 1 <" LessThan5~10_combout $end
$var wire 1 =" c [29] $end
$var wire 1 >" c [28] $end
$var wire 1 ?" c [27] $end
$var wire 1 @" c [26] $end
$var wire 1 A" c [25] $end
$var wire 1 B" c [24] $end
$var wire 1 C" c [23] $end
$var wire 1 D" c [22] $end
$var wire 1 E" c [21] $end
$var wire 1 F" c [20] $end
$var wire 1 G" c [19] $end
$var wire 1 H" c [18] $end
$var wire 1 I" c [17] $end
$var wire 1 J" c [16] $end
$var wire 1 K" c [15] $end
$var wire 1 L" c [14] $end
$var wire 1 M" c [13] $end
$var wire 1 N" c [12] $end
$var wire 1 O" c [11] $end
$var wire 1 P" c [10] $end
$var wire 1 Q" c [9] $end
$var wire 1 R" c [8] $end
$var wire 1 S" c [7] $end
$var wire 1 T" c [6] $end
$var wire 1 U" c [5] $end
$var wire 1 V" c [4] $end
$var wire 1 W" c [3] $end
$var wire 1 X" c [2] $end
$var wire 1 Y" c [1] $end
$var wire 1 Z" c [0] $end
$var wire 1 [" c3 [25] $end
$var wire 1 \" c3 [24] $end
$var wire 1 ]" c3 [23] $end
$var wire 1 ^" c3 [22] $end
$var wire 1 _" c3 [21] $end
$var wire 1 `" c3 [20] $end
$var wire 1 a" c3 [19] $end
$var wire 1 b" c3 [18] $end
$var wire 1 c" c3 [17] $end
$var wire 1 d" c3 [16] $end
$var wire 1 e" c3 [15] $end
$var wire 1 f" c3 [14] $end
$var wire 1 g" c3 [13] $end
$var wire 1 h" c3 [12] $end
$var wire 1 i" c3 [11] $end
$var wire 1 j" c3 [10] $end
$var wire 1 k" c3 [9] $end
$var wire 1 l" c3 [8] $end
$var wire 1 m" c3 [7] $end
$var wire 1 n" c3 [6] $end
$var wire 1 o" c3 [5] $end
$var wire 1 p" c3 [4] $end
$var wire 1 q" c3 [3] $end
$var wire 1 r" c3 [2] $end
$var wire 1 s" c3 [1] $end
$var wire 1 t" c3 [0] $end
$var wire 1 u" c2 [26] $end
$var wire 1 v" c2 [25] $end
$var wire 1 w" c2 [24] $end
$var wire 1 x" c2 [23] $end
$var wire 1 y" c2 [22] $end
$var wire 1 z" c2 [21] $end
$var wire 1 {" c2 [20] $end
$var wire 1 |" c2 [19] $end
$var wire 1 }" c2 [18] $end
$var wire 1 ~" c2 [17] $end
$var wire 1 !# c2 [16] $end
$var wire 1 "# c2 [15] $end
$var wire 1 ## c2 [14] $end
$var wire 1 $# c2 [13] $end
$var wire 1 %# c2 [12] $end
$var wire 1 &# c2 [11] $end
$var wire 1 '# c2 [10] $end
$var wire 1 (# c2 [9] $end
$var wire 1 )# c2 [8] $end
$var wire 1 *# c2 [7] $end
$var wire 1 +# c2 [6] $end
$var wire 1 ,# c2 [5] $end
$var wire 1 -# c2 [4] $end
$var wire 1 .# c2 [3] $end
$var wire 1 /# c2 [2] $end
$var wire 1 0# c2 [1] $end
$var wire 1 1# c2 [0] $end
$upscope $end
$upscope $end
$enddefinitions $end
#0
$dumpvars
0!
1"
1#
1$
x%
0&
1'
x(
1)
1*
1+
1,
1-
1.
0/
00
11
12
03
04
05
16
07
08
09
0:
1;
0<
0=
0>
1?
0@
0A
0B
1C
0D
0E
0F
1G
0H
0I
0J
1K
0L
0M
0N
1O
0P
0Q
0R
1S
0T
0U
0V
1W
0X
0Y
0Z
1[
0\
0]
0^
1_
0`
0a
0b
1c
1d
1e
1f
1g
1h
1i
0j
0k
0l
0m
0n
1o
0p
0q
1r
0s
0t
0u
0v
0w
1x
0y
0z
0{
1|
0}
0~
0!!
1"!
0#!
0$!
0%!
1&!
0'!
0(!
0)!
1*!
0+!
0,!
0-!
1.!
0/!
00!
01!
12!
03!
04!
05!
16!
07!
08!
09!
1:!
0;!
0<!
0=!
1>!
0?!
1@!
1A!
1B!
1C!
1D!
1E!
0F!
0G!
0H!
1I!
0J!
0K!
0L!
1M!
0N!
0O!
0P!
0Q!
1R!
0S!
0T!
0U!
0V!
0W!
0X!
1Y!
0Z!
0[!
0\!
1]!
0^!
0_!
0`!
1a!
0b!
0c!
0d!
1e!
0f!
0g!
0h!
1i!
0j!
0k!
0l!
1m!
0n!
0o!
0p!
1q!
0r!
0s!
0t!
1u!
0v!
0w!
0x!
1y!
0z!
0{!
0|!
1}!
0~!
0!"
0""
1#"
0$"
0%"
0&"
1'"
0("
0)"
0*"
1+"
0,"
0-"
0."
1/"
00"
01"
02"
13"
14"
15"
16"
17"
18"
19"
0:"
0;"
0<"
0Z"
0Y"
0X"
0W"
0V"
0U"
0T"
0S"
0R"
0Q"
0P"
0O"
0N"
0M"
0L"
0K"
0J"
0I"
0H"
0G"
0F"
0E"
0D"
0C"
0B"
0A"
0@"
0?"
0>"
0="
0t"
0s"
0r"
0q"
0p"
0o"
0n"
0m"
0l"
0k"
0j"
0i"
0h"
0g"
0f"
0e"
0d"
0c"
0b"
0a"
0`"
0_"
0^"
0]"
0\"
0["
01#
00#
0/#
0.#
0-#
0,#
0+#
0*#
0)#
0(#
0'#
0&#
0%#
0$#
0##
0"#
0!#
0~"
0}"
0|"
0{"
0z"
0y"
0x"
0w"
0v"
0u"
$end
#1000
1!
1/
10
0%
1Z"
11#
1t"
1W!
0R!
1G!
0o
1k
01
1X!
1H!
1l
#2000
0!
0/
00
1%
#3000
1!
1/
10
0%
1Y"
0Z"
10#
01#
1s"
0t"
0Y!
0X!
0W!
1R!
0I!
0H!
0G!
1o
02
0l
0k
11
1Z!
1Y!
1X!
1J!
1I!
1H!
13
12
1l
0Z!
0J!
03
#4000
0!
0/
00
1%
#5000
1!
1/
10
0%
1Z"
11#
1t"
1W!
0R!
1G!
0o
1:
1k
01
0Y!
0X!
0I!
0H!
02
0l
1Z!
1J!
13
#6000
0!
0/
00
1%
#7000
1!
1/
10
0%
1X"
0Y"
0Z"
1/#
00#
01#
0s"
0t"
1r"
1[!
0Z!
1Y!
1X!
0W!
1R!
1K!
0J!
1I!
1H!
0G!
1o
12
1l
0k
11
14
03
1\!
0[!
1Z!
0X!
1L!
0K!
1J!
0H!
04
13
0l
15
0\!
0L!
05
#8000
0!
0/
00
1%
#9000
1!
1/
10
0%
1Z"
11#
1t"
1:"
1W!
0R!
1O!
1G!
0o
1k
01
1X!
1H!
1l
#10000
0!
0/
00
1%
#11000
1!
1/
10
0%
1Y"
0Z"
10#
01#
1s"
0t"
0Y!
0X!
0W!
1R!
0I!
0H!
0G!
1o
02
0l
0k
11
1[!
0Z!
1Y!
1X!
1K!
0J!
1I!
1H!
14
03
12
1l
1\!
0[!
1Z!
1L!
0K!
1J!
15
04
13
0\!
0L!
05
#12000
0!
0/
00
1%
#13000
1!
1/
10
0%
1Z"
11#
1t"
1W!
0R!
1G!
0o
1k
01
0Y!
0X!
0I!
0H!
02
0l
1[!
0Z!
1K!
0J!
14
03
1\!
1L!
15
#14000
0!
0/
00
1%
#15000
1!
1/
10
0%
1W"
0X"
0Y"
0Z"
1.#
0/#
00#
01#
0s"
0t"
1q"
0r"
0]!
0\!
0[!
1Z!
1Y!
1X!
0W!
1R!
0M!
0L!
0K!
1J!
1I!
1H!
0G!
1o
12
1l
0k
11
06
05
04
13
1^!
1]!
1\!
0Z!
0X!
1N!
1M!
1L!
0J!
0H!
03
0l
17
16
15
0^!
0N!
07
#16000
0!
0/
00
1%
#17000
1!
1/
10
0%
1Z"
11#
1t"
1S!
1W!
0R!
1v
1G!
0o
1k
01
1X!
1w
1H!
1l
#18000
0!
0/
00
1%
#19000
1!
1/
10
0%
1Y"
0Z"
10#
01#
1s"
0t"
0Y!
0X!
0W!
1R!
0I!
0H!
0G!
1o
02
0l
0k
11
1Z!
1Y!
1X!
1J!
1I!
1H!
13
12
1l
0Z!
0J!
03
#20000
0!
0/
00
1%
#21000
1!
1/
10
0%
1Z"
11#
1t"
1W!
0R!
1G!
0o
1k
01
0Y!
0X!
0I!
0H!
02
0l
1Z!
1J!
13
#22000
0!
0/
00
1%
#23000
1!
1/
10
0%
1X"
0Y"
0Z"
1/#
00#
01#
0s"
0t"
1r"
1[!
0Z!
1Y!
1X!
0W!
1R!
1K!
0J!
1I!
1H!
0G!
1o
12
1l
0k
11
14
03
0]!
0\!
0[!
1Z!
0X!
0M!
0L!
0K!
1J!
0H!
04
13
0l
06
05
1^!
1]!
1\!
1N!
1M!
1L!
16
15
17
0^!
0N!
07
#24000
0!
0/
00
1%
#25000
1!
1/
10
0%
1Z"
11#
1t"
1W!
0R!
1G!
0o
1k
01
1X!
1H!
1l
#26000
0!
0/
00
1%
#27000
1!
1/
10
0%
1Y"
0Z"
10#
01#
1s"
0t"
0Y!
0X!
0W!
1R!
0I!
0H!
0G!
1o
02
0l
0k
11
1[!
0Z!
1Y!
1X!
1K!
0J!
1I!
1H!
14
03
12
1l
0]!
0\!
0[!
1Z!
0M!
0L!
0K!
1J!
06
05
04
13
1^!
1]!
1\!
1N!
1M!
1L!
17
16
15
0^!
0N!
07
#28000
0!
0/
00
1%
#29000
1!
1/
10
0%
1Z"
11#
1t"
1W!
0R!
1G!
0o
1k
01
0Y!
0X!
0I!
0H!
02
0l
1[!
0Z!
1K!
0J!
14
03
0]!
0\!
0M!
0L!
06
05
1^!
1N!
17
#30000
0!
0/
00
1%
#31000
1!
1/
10
0%
1V"
0W"
0X"
0Y"
0Z"
1-#
0.#
0/#
00#
01#
0s"
0t"
1p"
0q"
0r"
1_!
0^!
0:"
1]!
1\!
0S!
0[!
1Z!
1Y!
1X!
0W!
1R!
1p
0N!
0O!
1M!
1L!
0v
0K!
1J!
1I!
1H!
0G!
1o
0:
12
1l
0k
11
18
07
16
15
04
13
1`!
0_!
1^!
0\!
0Z!
0X!
1q
0p
1N!
0L!
0J!
0H!
03
0l
19
08
17
05
0`!
0q
09
#32000
0!
0/
00
1%
#33000
1!
1/
10
0%
1Z"
11#
1t"
1W!
0R!
1G!
0o
1k
01
1X!
1H!
1l
#34000
0!
0/
00
1%
#35000
1!
1/
10
0%
1Y"
0Z"
10#
01#
1s"
0t"
0Y!
0X!
0W!
1R!
0I!
0H!
0G!
1o
02
0l
0k
11
1Z!
1Y!
1X!
1J!
1I!
1H!
13
12
1l
0Z!
0J!
03
#36000
0!
0/
00
1%
#37000
1!
1/
10
0%
1Z"
11#
1t"
1W!
0R!
1G!
0o
1:
1k
01
0Y!
0X!
0I!
0H!
02
0l
1Z!
1J!
13
#38000
0!
0/
00
1%
#39000
1!
1/
10
0%
1X"
0Y"
0Z"
1/#
00#
01#
0s"
0t"
1r"
1[!
0Z!
1Y!
1X!
0W!
1R!
1K!
0J!
1I!
1H!
0G!
1o
12
1l
0k
11
14
03
1\!
0[!
1Z!
0X!
1L!
0K!
1J!
0H!
04
13
0l
15
0\!
0L!
05
#40000
0!
0/
00
1%
#41000
1!
1/
10
0%
1Z"
11#
1t"
1:"
1W!
0R!
1O!
1G!
0o
1k
01
1X!
1H!
1l
#42000
0!
0/
00
1%
#43000
1!
1/
10
0%
1Y"
0Z"
10#
01#
1s"
0t"
0Y!
0X!
0W!
1R!
0I!
0H!
0G!
1o
02
0l
0k
11
1[!
0Z!
1Y!
1X!
1K!
0J!
1I!
1H!
14
03
12
1l
1\!
0[!
1Z!
1L!
0K!
1J!
15
04
13
0\!
0L!
05
#44000
0!
0/
00
1%
#45000
1!
1/
10
0%
1Z"
11#
1t"
1W!
0R!
1G!
0o
1k
01
0Y!
0X!
0I!
0H!
02
0l
1[!
0Z!
1K!
0J!
14
03
1\!
1L!
15
#46000
0!
0/
00
1%
#47000
1!
1/
10
0%
1W"
0X"
0Y"
0Z"
1.#
0/#
00#
01#
0s"
0t"
1q"
0r"
0]!
0\!
0[!
1Z!
1Y!
1X!
0W!
1R!
0M!
0L!
0K!
1J!
1I!
1H!
0G!
1o
12
1l
0k
11
06
05
04
13
1_!
0^!
1]!
1\!
0Z!
0X!
1p
0N!
1M!
1L!
0J!
0H!
03
0l
18
07
16
15
1`!
0_!
1^!
1q
0p
1N!
19
08
17
0`!
0q
09
#48000
0!
0/
00
1%
#49000
1!
1/
10
0%
1Z"
11#
1t"
1S!
1W!
0R!
1v
1G!
0o
1k
01
1X!
1H!
1l
#50000
0!
0/
00
1%
#51000
1!
1/
10
0%
1Y"
0Z"
10#
01#
1s"
0t"
0Y!
0X!
0W!
1R!
0I!
0H!
0G!
1o
1m
02
0l
0k
11
1Z!
1Y!
1X!
1J!
1I!
1H!
1n
13
12
1l
0Z!
0J!
03
0,
0"
#52000
0!
0/
00
1%
#53000
1!
1/
10
0%
1Z"
11#
1t"
1W!
0R!
1G!
0o
1k
01
0Y!
0X!
0I!
0H!
02
0l
1Z!
1J!
13
#54000
0!
0/
00
1%
#55000
1!
1/
10
0%
1X"
0Y"
0Z"
1/#
00#
01#
0s"
0t"
1r"
1[!
0Z!
1Y!
1X!
0W!
1R!
1K!
0J!
1I!
1H!
0G!
1o
12
1l
0k
11
14
03
0]!
0\!
0[!
1Z!
0X!
0M!
0L!
0K!
1J!
0H!
04
13
0l
06
05
1_!
0^!
1]!
1\!
1p
0N!
1M!
1L!
16
15
18
07
1`!
0_!
1^!
1q
0p
1N!
08
17
19
0`!
0q
09
#56000
0!
0/
00
1%
#57000
1!
1/
10
0%
1Z"
11#
1t"
1W!
0R!
1G!
0o
1k
01
1X!
1H!
1l
#58000
0!
0/
00
1%
#59000
1!
1/
10
0%
1Y"
0Z"
10#
01#
1s"
0t"
0Y!
0X!
0W!
1R!
0I!
0H!
0G!
1o
02
0l
0k
11
1[!
0Z!
1Y!
1X!
1K!
0J!
1I!
1H!
14
03
12
1l
0]!
0\!
0[!
1Z!
0M!
0L!
0K!
1J!
06
05
04
13
1_!
0^!
1]!
1\!
1p
0N!
1M!
1L!
18
07
16
15
1`!
0_!
1^!
1q
0p
1N!
19
08
17
0`!
0q
09
#60000
0!
0/
00
1%
#61000
1!
1/
10
0%
1Z"
11#
1t"
1W!
0R!
1G!
0o
1k
01
0Y!
0X!
0I!
0H!
02
0l
1[!
0Z!
1K!
0J!
14
03
0]!
0\!
0M!
0L!
06
05
1_!
0^!
1p
0N!
18
07
1`!
1q
19
#62000
0!
0/
00
1%
#63000
1!
1/
10
0%
1U"
0V"
0W"
0X"
0Y"
0Z"
0-#
0.#
0/#
00#
01#
1,#
0s"
0t"
1o"
0p"
0q"
0r"
0a!
0`!
0_!
1^!
0:"
1]!
1\!
0S!
0[!
1Z!
1Y!
1X!
0W!
1R!
0p
1N!
0O!
1M!
1L!
0v
0K!
1J!
1I!
1H!
0G!
1o
0r
0q
0m
0:
12
1l
0k
11
0;
09
08
17
16
15
04
13
1b!
1a!
1`!
0^!
0\!
0Z!
0X!
1r
1q
0N!
0L!
0J!
0H!
1s
03
0l
1<
1;
19
07
05
0b!
0s
0<
#64000
0!
0/
00
1%
#65000
1!
1/
10
0%
1Z"
11#
1t"
1W!
0R!
1G!
0o
1k
01
1X!
1H!
1l
#66000
0!
0/
00
1%
#67000
1!
1/
10
0%
1Y"
0Z"
10#
01#
1s"
0t"
0Y!
0X!
0W!
1R!
0I!
0H!
0G!
1o
02
0l
0k
11
1Z!
1Y!
1X!
1J!
1I!
1H!
13
12
1l
0Z!
0J!
03
#68000
0!
0/
00
1%
#69000
1!
1/
10
0%
1Z"
11#
1t"
1W!
0R!
1G!
0o
1:
1k
01
0Y!
0X!
0I!
0H!
02
0l
1Z!
1J!
13
#70000
0!
0/
00
1%
#71000
1!
1/
10
0%
1X"
0Y"
0Z"
1/#
00#
01#
0s"
0t"
1r"
1[!
0Z!
1Y!
1X!
0W!
1R!
1K!
0J!
1I!
1H!
0G!
1o
12
1l
0k
11
14
03
1\!
0[!
1Z!
0X!
1L!
0K!
1J!
0H!
04
13
0l
15
0\!
0L!
05
#72000
0!
0/
00
1%
#73000
1!
1/
10
0%
1Z"
11#
1t"
1:"
1W!
0R!
1O!
1G!
0o
1k
01
1X!
1H!
1l
#74000
0!
0/
00
1%
#75000
1!
1/
10
0%
1Y"
0Z"
10#
01#
1s"
0t"
0Y!
0X!
0W!
1R!
0I!
0H!
0G!
1o
02
0l
0k
11
1[!
0Z!
1Y!
1X!
1K!
0J!
1I!
1H!
14
03
12
1l
1\!
0[!
1Z!
1L!
0K!
1J!
15
04
13
0\!
0L!
05
#76000
0!
0/
00
1%
#77000
1!
1/
10
0%
1Z"
11#
1t"
1W!
0R!
1G!
0o
1k
01
0Y!
0X!
0I!
0H!
02
0l
1[!
0Z!
1K!
0J!
14
03
1\!
1L!
15
#78000
0!
0/
00
1%
#79000
1!
1/
10
0%
1W"
0X"
0Y"
0Z"
1.#
0/#
00#
01#
0s"
0t"
1q"
0r"
0]!
0\!
0[!
1Z!
1Y!
1X!
0W!
1R!
0M!
0L!
0K!
1J!
1I!
1H!
0G!
1o
12
1l
0k
11
06
05
04
13
1^!
1]!
1\!
0Z!
0X!
1N!
1M!
1L!
0J!
0H!
03
0l
17
16
15
0^!
0N!
07
#80000
0!
0/
00
1%
#81000
1!
1/
10
0%
1Z"
11#
1t"
1S!
1W!
0R!
1v
1G!
0o
1k
01
1X!
1H!
1l
#82000
0!
0/
00
1%
#83000
1!
1/
10
0%
1Y"
0Z"
10#
01#
1s"
0t"
0Y!
0X!
0W!
1R!
0I!
0H!
0G!
1o
02
0l
0k
11
1Z!
1Y!
1X!
1J!
1I!
1H!
13
12
1l
0Z!
0J!
03
#84000
0!
0/
00
1%
#85000
1!
1/
10
0%
1Z"
11#
1t"
1W!
0R!
1G!
0o
1k
01
0Y!
0X!
0I!
0H!
02
0l
1Z!
1J!
13
#86000
0!
0/
00
1%
#87000
1!
1/
10
0%
1X"
0Y"
0Z"
1/#
00#
01#
0s"
0t"
1r"
1[!
0Z!
1Y!
1X!
0W!
1R!
1K!
0J!
1I!
1H!
0G!
1o
12
1l
0k
11
14
03
0]!
0\!
0[!
1Z!
0X!
0M!
0L!
0K!
1J!
0H!
04
13
0l
06
05
1^!
1]!
1\!
1N!
1M!
1L!
16
15
17
0^!
0N!
07
#88000
0!
0/
00
1%
#89000
1!
1/
10
0%
1Z"
11#
1t"
1W!
0R!
1G!
0o
1k
01
1X!
1H!
1l
#90000
0!
0/
00
1%
#91000
1!
1/
10
0%
1Y"
0Z"
10#
01#
1s"
0t"
0Y!
0X!
0W!
1R!
0I!
0H!
0G!
1o
02
0l
0k
11
1[!
0Z!
1Y!
1X!
1K!
0J!
1I!
1H!
14
03
12
1l
0]!
0\!
0[!
1Z!
0M!
0L!
0K!
1J!
06
05
04
13
1^!
1]!
1\!
1N!
1M!
1L!
17
16
15
0^!
0N!
07
#92000
0!
0/
00
1%
#93000
1!
1/
10
0%
1Z"
11#
1t"
1W!
0R!
1G!
0o
1k
01
0Y!
0X!
0I!
0H!
02
0l
1[!
0Z!
1K!
0J!
14
03
0]!
0\!
0M!
0L!
06
05
1^!
1N!
17
#94000
0!
0/
00
1%
#95000
1!
1/
10
0%
1V"
0W"
0X"
0Y"
0Z"
1-#
0.#
0/#
00#
01#
0s"
0t"
1p"
0q"
0r"
1_!
0^!
0:"
1]!
1\!
0S!
0[!
1Z!
1Y!
1X!
0W!
1R!
1p
0N!
0O!
1M!
1L!
0v
0K!
1J!
1I!
1H!
0G!
1o
0:
12
1l
0k
11
1j
18
07
16
15
04
13
0a!
0`!
0_!
1^!
0\!
0Z!
0X!
0r
0q
0p
1N!
0L!
0J!
0H!
0j
03
0l
0;
09
08
17
05
1b!
1a!
1`!
1s
1r
1q
1<
1;
19
0b!
0s
0<
#96000
0!
0/
00
1%
#97000
1!
1/
10
0%
1Z"
11#
1t"
1W!
0R!
1G!
0o
1k
01
1X!
1H!
1l
#98000
0!
0/
00
1%
#99000
1!
1/
10
0%
1Y"
0Z"
10#
01#
1s"
0t"
0Y!
0X!
0W!
1R!
0I!
0H!
0G!
1o
02
0l
0k
11
1Z!
1Y!
1X!
1J!
1I!
1H!
13
12
1l
0Z!
0J!
03
#100000
0!
0/
00
1%
#101000
1!
1/
10
0%
1Z"
11#
1t"
1W!
0R!
1G!
0o
1:
1k
01
0Y!
0X!
0I!
0H!
1j
02
0l
1Z!
1J!
13
#102000
0!
0/
00
1%
#103000
1!
1/
10
0%
1X"
0Y"
0Z"
1/#
00#
01#
0s"
0t"
0o"
0p"
1[!
0Z!
1Y!
1X!
0W!
1R!
1K!
0J!
1I!
1H!
0G!
1o
0:
12
1l
0k
11
0n
0j
09
07
1\!
0[!
1Z!
0X!
1L!
0K!
1J!
0H!
03
0l
1,
1"
0\!
0L!
#104000
0!
0/
00
1%
#105000
1!
1/
10
0%
1Z"
11#
1t"
1:"
1W!
0R!
1O!
1G!
0o
1k
01
1X!
1H!
1l
#106000
0!
0/
00
1%
